
bookmark = {
	name = "NORTH_AELANTIR_NAME"
	desc = "NORTH_AELANTIR_DESC"
	date = 1444.11.11
	
	center = 1808
	
	country = H01	#Arakeprun
	country = H08	#Pelomar
	country = H16	#Gemradcurt
	country = G35	#Arverynn
	country = G32	#Malacnar
	country = G21	#Pomvasonn
	country = G43	#Haraf
	country = G01	#Boek
	
	easy_country = H01
	easy_country = H08
	easy_country = G32
	easy_country = G21
	
}