skurkokli_gorgerlord_powerup_a_one = {
	slot = 1
	generic = no
	ai = yes
	potential = {
		tag = J47
		has_country_flag = gorger_lord_influence_level_1
	}
	has_country_shield = yes

	skurkokli_gorgerlord_powerup_1 = {
		icon = mission_spoils_of_war
		required_missions = { }
		position = 1

		trigger = {
			custom_trigger_tooltip = {
				tooltip = win_battle_ogre_25_tooltip
				check_variable = {
					which = nbCharge
					value = 25
				}
			}
		}
		
		effect = {
			add_country_modifier = {
				name = skurkokli_gorger_lord_influence_2
				duration = -1
			}
			hidden_effect = {
				remove_country_modifier = skurkokli_gorger_lord_influence_1
				set_country_flag = gorger_lord_influence_level_2
				swap_non_generic_missions = yes
			}
		}
	}
}

skurkokli_gorgerlord_powerup_b_one = {
	slot = 1
	generic = no
	ai = yes
	potential = {
		tag = J47
		has_country_flag = gorger_lord_influence_level_2
	}
	has_country_shield = yes
	
	skurkokli_gorgerlord_powerup_2 = {
		icon = protect_against_austria
		required_missions = { skurkokli_gorgerlord_powerup_1 }
		position = 2

		trigger = {
			custom_trigger_tooltip = {
				tooltip = win_battle_ogre_100_tooltip
				check_variable = {
					which = nbCharge
					value = 100
				}
			}
		}
		
		effect = {
			add_country_modifier = {
				name = skurkokli_gorger_lord_influence_3
				duration = -1
			}
			hidden_effect = {
				remove_country_modifier = skurkokli_gorger_lord_influence_2
				set_country_flag = gorger_lord_influence_level_3
				swap_non_generic_missions = yes
			}
		}
	}
}

skurkokli_gorgerlord_powerup_c_one = {
	slot = 1
	generic = no
	ai = yes
	potential = {
		tag = J47
		has_country_flag = gorger_lord_influence_level_3
	}
	has_country_shield = yes

	skurkokli_gorgerlord_powerup_3 = {
		icon = mission_mounted_battle
		required_missions = { skurkokli_gorgerlord_powerup_2 }
		position = 3

		trigger = {
			custom_trigger_tooltip = {
				tooltip = win_battle_ogre_250_tooltip
				check_variable = {
					which = nbCharge
					value = 250
				}
			}
		}
		
		effect = {
			add_country_modifier = {
				name = skurkokli_gorger_lord_influence_4
				duration = -1
			}
			hidden_effect = {
				remove_country_modifier = skurkokli_gorger_lord_influence_3
				set_country_flag = gorger_lord_influence_level_4
				swap_non_generic_missions = yes
			}
		}
	}
}

skurkokli_gorgerlord_powerup_d_one = {
	slot = 1
	generic = no
	ai = yes
	potential = {
		tag = J47
		has_country_flag = gorger_lord_influence_level_4
	}
	has_country_shield = yes
	
	skurkokli_gorgerlord_powerup_4 = {
		icon = neapolitan_govenance 
		required_missions = { skurkokli_gorgerlord_powerup_3 }
		position = 4

		trigger = {
			custom_trigger_tooltip = {
				tooltip = win_battle_ogre_500_tooltip
				check_variable = {
					which = nbCharge
					value = 500
				}
			}
		}
		
		effect = {
			add_country_modifier = {
				name = skurkokli_gorger_lord_influence_5
				duration = -1
			}
			hidden_effect = {
				remove_country_modifier = skurkokli_gorger_lord_influence_4
			}
		}
	}
}

skurkokli_ogrekind_a_one = {
	slot = 1
	generic = no
	ai = yes
	potential = {
		tag = J47
	}
	has_country_shield = yes

	skurkokli_ogrekind_1 = {
		icon = mission_rb_unite_the_clans
		required_missions = { skurkokli_the_northlords }
		position = 8

		trigger = {
			mil_power = 100
			NOT = { exists = J38 }
			NOT = { exists = J39 }
			NOT = { exists = J40 }
		}
		
		effect = {
			add_mil_power = -100
			add_country_modifier = {
				name = skurkokli_ogre_manpower_1
				duration = -1
			}
		}
	}

	skurkokli_ogrekind_2 = {
		icon = the_russian_campaign
		required_missions = { 
			skurkokli_long_live_the_king
			skurkokli_ogrekind_1
		}
		position = 10

		trigger = {
			mil_power = 200
			NOT = { exists = J35 }
			NOT = { exists = J36 }
			NOT = { exists = J37 }
			NOT = { exists = J38 }
			NOT = { exists = J39 }
			NOT = { exists = J40 }
			NOT = { exists = I90 }
		}
		
		effect = {
			add_mil_power = -200
			add_country_modifier = {
				name = skurkokli_ogre_manpower_2
				duration = -1
			}
			hidden_effect = {
				remove_country_modifier = skurkokli_ogre_manpower_1
			}
		}
	}
}

skurkokli_horde_marches_one = {
	slot = 1
	generic = no
	ai = yes
	potential = {
		tag = J47
		has_country_flag = horde_marches_west
	}
	has_country_shield = yes

	skurkokli_ogrekind_3 = {
		icon = mission_manchu_warrior
		required_missions = { 
			skurkokli_ogrekind_2
			skurkokli_into_the_swamps		
		}
		position = 13

		provinces_to_highlight = { 
			OR = {
				province_id = 4145
				province_id = 4158
				province_id = 4151
				province_id = 4123
				province_id = 4125
				province_id = 4129
				owned_by = J32
				owned_by = J48
			}
			NOT = { owned_by = ROOT }
		}

		trigger = {
			4145 = {
				owned_by = ROOT
			}
			4158 = {
				owned_by = ROOT
			}
			4151 = {
				owned_by = ROOT
			}
			4123 = {
				owned_by = ROOT
			}
			4125 = {
				owned_by = ROOT
			}
			4129 = {
				owned_by = ROOT
			}
			NOT = { exists = J48 }			
			NOT = { exists = J32 }
		}
		
		effect = {
			hidden_effect = {
				every_owned_province = {
					limit = {
						OR = {
							region = serpents_vale_region
							region = west_dwarovar_region
							is_core = J48
							is_core = J32
						} 
						NOT = { 
							region = northern_pass_region
							area = anvils_horn_area
							area = krakdhum_area
							area = dead_end_tunnel_area
						}					
					}
					export_to_variable = {
						which = ConsumedDev
						value = development
					}
					ROOT = { change_variable = { which = ConsumedDev which = PREV } }
				}
				set_country_flag = skurkokli_randomize
				set_country_flag = skurkokli_randomize_vale
			}
			country_event = { id = ogre.17 days = 3 }
			custom_tooltip = ogre_consume_serpents_vale
		}
	}
	
	skurkokli_ogrekind_4 = {
		icon = swiss_mercenaries
		required_missions = { skurkokli_ogrekind_3 }
		position = 16

		provinces_to_highlight = { 
			region = inner_castanor_region
		}
		
		trigger = {
			NOT = { exists = J35 }
			NOT = { exists = J36 }
			NOT = { exists = J37 }
			NOT = { exists = J38 }
			NOT = { exists = J39 }
			NOT = { exists = J40 }
			NOT = { exists = J41 }
			NOT = { exists = J42 }
			NOT = { exists = J43 }
			NOT = { exists = J44 }
			NOT = { exists = J45 }
			NOT = { exists = J46 }
			NOT = { exists = I90 }
			NOT = { exists = J48 }			
			NOT = { exists = J32 }
			inner_castanor_region = {
				type = all
				is_core = ROOT 
				owned_by = ROOT 
			}
		}
		
		effect = {
			country_event = {
				id = ogre.29
			}
		}
	}

	skurkokli_frosthide_fortress = {
		icon = mission_magnificent_castle
		required_missions = { skurkokli_frosthide_resettled	}
		position = 17

		provinces_to_highlight = {
			province_id = 741
		}
		
		trigger = {
			741 = { 
				has_fort_building_trigger = yes
				has_manpower_building_trigger = yes
				base_manpower = 5
			}
		}
		
		effect = {
			741 = {
				rename_capital = "Levilkh'aviktar"
				add_province_modifier = {
					name = skurkokli_frosthide
					duration = -1
				}
			}
		}
	}

	skurkokli_big_wall = {
		icon = mission_great_wall
		required_missions = { 
								skurkokli_the_ogre_horde_settles
								skurkokli_frosthide_fortress 
							}
		position = 19
		
		provinces_to_highlight = {
			OR = {
				province_id = 756
				province_id = 754
				province_id = 850
				province_id = 860
				province_id = 865
				province_id = 874
				province_id = 830
			}
		}
		
		trigger = {
			756 = {
				owned_by = ROOT
				fort_level = 2
				base_manpower = 5				
			}
			754 = {
				owned_by = ROOT
				fort_level = 2
				base_manpower = 5	
			}
			850 = {
				owned_by = ROOT
				fort_level = 2
				base_manpower = 5	
			}
			860 = {
				owned_by = ROOT
				fort_level = 2
				base_manpower = 5	
			}
			865 = {
				owned_by = ROOT
				fort_level = 2
				base_manpower = 5	
			}
			874 = {
				owned_by = ROOT
				fort_level = 2
				base_manpower = 5	
			}
			830 = {
				owned_by = ROOT
				fort_level = 2
				base_manpower = 5	
			}
		}
		
		effect = {
			756 = {
				add_province_modifier = {
					name = skurkokli_big_wall_forts
					duration = -1
				}			
			}
			754 = {
				add_province_modifier = {
					name = skurkokli_big_wall_forts
					duration = -1
				}	
			}
			850 = {
				add_province_modifier = {
					name = skurkokli_big_wall_forts
					duration = -1
				}	
			}
			860 = {
				add_province_modifier = {
					name = skurkokli_big_wall_forts
					duration = -1
				}
			}
			865 = {
				add_province_modifier = {
					name = skurkokli_big_wall_forts
					duration = -1
				}	
			}
			874 = {
				add_province_modifier = {
					name = skurkokli_big_wall_forts
					duration = -1
				}	
			}
			830 = {
				add_province_modifier = {
					name = skurkokli_big_wall_forts
					duration = -1
				}
			}
			custom_tooltip = ogre_lose_devastation
			hidden_effect = {
				every_owned_province = {
					limit = { 
						OR = {
							region = west_castanor_region
							region = inner_castanor_region
							region = south_castanor_region
						}
					}
					add_devastation = -30
				}
			}
		}
	}

	skurkokli_a_new_swamp = {
		icon = mission_control_the_desh
		required_missions = { 
								skurkokli_the_borderlands
								skurkokli_big_wall 
							}
		position = 20
		
		provinces_to_highlight = { 
			area = balmire_area
		}
		
		trigger = {
			treasury = 300
			balmire_area = { 	
				type = all
				owned_by = ROOT
				is_core = ROOT
			}
			229 = { 
				has_province_modifier = castanorian_citadel
				is_core = ROOT
				owned_by = ROOT
				development = 25
				has_fort_building_trigger = yes
			}
			NOT = { exists = J48 }			
			NOT = { exists = J32 }
		}
		
		effect = {
			add_prestige = 10
			add_treasury = -300
			balmire_area = {
				change_culture = mossmouth_ogre
				change_religion = ROOT
				add_base_manpower = 1
				add_province_modifier = {
					name = skurkokli_bal_mire_mossmouth
					duration = -1
				}
			}
			229 = { 
				change_province_name = "Mozobelkir"
				rename_capital = "Mozobelkir"				
				add_base_tax = 1
				add_base_production = 1
				add_base_manpower = 1
				add_province_modifier = {
					name = skurkokli_bal_mire_fort
					duration = -1
				}
			}
		}
	}

	skurkokli_scourge_of_the_gods = {
		icon = mission_rb_control_state_religion
		required_missions = { skurkokli_land_of_the_ogres }
		position = 21
		
		trigger = {
			religion = feast_of_the_gods
			religious_unity = 1
			num_of_owned_provinces_with = {
				OR = {
					region = west_castanor_region
					region = inner_castanor_region
					region = south_castanor_region
				}
				value = 40
				OR = {
					has_building = temple
					has_building = cathedral
				}
			}
		}
		
		effect = {
			add_prestige = 25
			add_country_modifier = {
				name = skurkokli_scourge_of_the_gods
				duration = 7300 #20 years
			}
		}
	}
	
	skurkokli_the_god_eaters = {
		icon = mission_head_on_spike
		required_missions = { skurkokli_scourge_of_the_gods }
		position = 22
		
		trigger = {
			religion = feast_of_the_gods		
			any_neighbor_country = {
				capital_scope = {
					superregion = western_cannor_superregion
				}
			}
			at_war_with_religious_enemy = yes
		}

		effect = {
			add_country_modifier = {
				name = skurkokli_god_eaters
				duration = 9125 #25 years
			}
		}
	}
}

skurkokli_bottom_one = {
	slot = 1
	generic = no
	ai = yes
	potential = {
			tag = J47
			has_country_flag = the_ogretide
	}
	has_country_shield = yes

	skurkokli_bronzegut_resettled = {
		icon = mission_dominate_home_trade_node
		required_missions = { skurkokli_tribes_of_bloodtooth }
		position = 29
		
		provinces_to_highlight = { province_id = 67 }
		
		trigger = {
			dip_power = 100
			treasury = 200
			67 = { 
				owned_by = ROOT
			}
			num_of_owned_provinces_with = {
				region = lencenor_region
				is_core = ROOT 
				owned_by = ROOT 
				is_city = yes
				value = 4
				trade_goods = wine
			}
		}
		
		effect = {
			add_prestige = 10
			add_dip_power = -100
			add_treasury = -200
			67 = {
				change_province_name = "Agrnmotsa"
				rename_capital = "Agrnmotsa"
				change_culture = bloodtooth_ogre
				change_religion = ROOT
				add_base_tax = 1
				add_base_production = 1
				add_base_manpower = 1
			}
			every_owned_province = {
				limit = {
					region = lencenor_region
					trade_goods = wine
				}
				change_culture = bloodtooth_ogre
				change_religion = ROOT
			}
		}		
	}
	
	skurkokli_land_of_wine = {
		icon = mission_green_village
		required_missions = { skurkokli_bronzegut_resettled }
		position = 30
		
		provinces_to_highlight = { province_id = 67 }
		
		trigger = {
			67 = { 
				owned_by = ROOT
				has_tax_building_trigger = yes 
				development = 20
			}
		}
		
		effect = {
			small_decrease_of_orcish_tolerance_effect = yes
			67 = {
				add_province_modifier = {
					name = skurkokli_bronzegut
					duration = -1
				}
			}
			random_owned_province = {
				limit = {
					region = lencenor_region
					trade_goods = wine
				}
				add_orcish_minority_size_effect = yes
				add_base_manpower = 1
				add_base_production = 1
			}
			random_owned_province = {
				limit = {
					region = lencenor_region
					trade_goods = wine
				}
				add_orcish_minority_size_effect = yes
				add_base_manpower = 1
				add_base_production = 1
			}
			random_owned_province = {
				limit = {
					region = lencenor_region
					trade_goods = wine
				}
				add_orcish_minority_size_effect = yes
				add_base_manpower = 1
				add_base_production = 1
			}
			random_owned_province = {
				limit = {
					region = lencenor_region
					trade_goods = wine
				}
				add_orcish_minority_size_effect = yes
				add_base_manpower = 1
				add_base_production = 1
			}
		}		
	}
}

ogre_tribe_two = {
	slot = 2
	generic = no
	ai = yes
	potential = {
		OR = {
			tag = J41
			tag = J42
			tag = J43
			tag = J44
			tag = J45
			tag = J46
		}
	}
	has_country_shield = yes
	
	skurkokli_train_berzerkers = {
		icon = mission_steppe_warriors
		required_missions = { }
		position = 1
		
		trigger = {
			manpower = 5
			mil_power = 100
			custom_trigger_tooltip = {
				tooltip =  not_skurkokli_tooltip
			}
		}
		
		effect = {
			hidden_effect = { set_country_flag = warcap_mission_1 }
			add_manpower = -5
			add_mil_power = -100
			add_country_modifier = {
				name = ogre_berzerkers
				duration = 5475
			}
		}
	}
	
	skurkokli_warlords = {
		icon = mission_manchu_warrior
		required_missions = { skurkokli_train_berzerkers }
		position = 2
		
		trigger = {
			OR = {
				mil = 4
				OR = {
					employed_advisor = {
						type = grand_captain
					}
					employed_advisor = {
						type = recruitmaster
					}
				}
			}
			custom_trigger_tooltip = {
				tooltip =  not_skurkokli_tooltip
			}
		}
		
		effect = {
			hidden_effect = { 
				clr_country_flag = warcap_mission_1
				set_country_flag = warcap_mission_2
			}
			if = {
				limit = {
					OR = {
						is_monarch_leader = yes 
						ruler_has_mage_personality = yes
					}
				}
				add_prestige = 10
				create_general = { tradition = 20 }
			}
			else = {
				add_prestige = 5
				define_ruler_to_general = {
					fire = 1
					shock = 3
					manuever = 4
					siege = 2
				}
			}
		}
	}

	skurkokli_warsmiths = {
		icon = mission_crusade_for_varna
		required_missions = { skurkokli_warlords }
		position = 3
		
		trigger = {
			any_owned_province = {
				OR = {
					trade_goods = iron
					trade_goods = copper
				}
			}
			custom_trigger_tooltip = {
				tooltip =  not_skurkokli_tooltip
			}
		}
		
		effect = {
			hidden_effect = { 
				clr_country_flag = warcap_mission_2
				set_country_flag = warcap_mission_3
			}
			add_country_modifier = {
				name = warsmiths
				duration = 5475
			}
		}
	}
}

skurkokli_two = {
	slot = 2
	generic = no
	ai = yes
	potential = {
		tag = J47
	}
	has_country_shield = yes

	
	skurkokli_ogrehome = {
		icon = mission_rb_colonise_canada
		required_missions = { skurkokli_eighth_clan }
		position = 5
		
		provinces_to_highlight = { province_id = 5003 }
		
		trigger = {
			adm_power = 100
			5003 = {
				is_city = yes
				is_core = ROOT 
				owned_by = ROOT
			}
		}
		
		effect = {
			add_adm_power = -100
			country_event = {
				id = ogre.13
			}
			hidden_effect = {
				5003 = {
					change_culture = fathide_ogre
					change_religion = ROOT
					add_province_triggered_modifier = skurkokli_randomizer_mod
				}
			}
		}
	}

	skurkokli_into_the_fold = {
		icon = mission_crusade_for_varna
		required_missions = { skurkokli_ogrehome }
		position = 6	
		
		trigger = {
			army_size_percentage = 1
			custom_trigger_tooltip = {
				tooltip = ogre_rancor_rules
				has_ruler_flag = is_rancor
			}
		}
		
		effect = {
			every_country = {
				limit = { 
					OR = {
						tag = I90
						tag = J35
						tag = J36
						tag = J37
						tag = J38
						tag = J39
						tag = J40
					} 
				}
				add_opinion = { 
					who = PREV 
					modifier = opinion_rival_tribe
				}
			}
			5028 = {
				if = {
					limit = {
						NOT = { is_core = ROOT }
						NOT = { owned_by = ROOT }
					}
					add_permanent_claim = ROOT
				}
			}
			5026 = {
				if = {
					limit = {
						NOT = { is_core = ROOT }
						NOT = { owned_by = ROOT }
					}
					add_permanent_claim = ROOT
				}
			}
			5025 = {
				if = {
					limit = {
						NOT = { is_core = ROOT }
						NOT = { owned_by = ROOT }
					}
					add_permanent_claim = ROOT
				}
			}
			5043 = {
				if = {
					limit = {
						NOT = { is_core = ROOT }
						NOT = { owned_by = ROOT }
					}
					add_permanent_claim = ROOT
				}
			}
			5042 = {
				if = {
					limit = {
						NOT = { is_core = ROOT }
						NOT = { owned_by = ROOT }
					}
					add_permanent_claim = ROOT
				}
			}
			5027 = {
				if = {
					limit = {
						NOT = { is_core = ROOT }
						NOT = { owned_by = ROOT }
					}
					add_permanent_claim = ROOT
				}
			}
			add_country_modifier = {
				name = skurkokli_gorger_lord_cometh
				duration = 5475 #15 years
			}
		}
	}
	
	skurkokli_the_northlords = {
		icon = mission_steppe_warriors
		required_missions = { skurkokli_into_the_fold }
		position = 7
		
		provinces_to_highlight = { 
				OR = {
					province_id = 5026
					province_id = 5025
					province_id = 5043
					province_id = 5042
					province_id = 5027
					province_id = 5028
				}
		}

		trigger = {
			if = {
				limit = { exists = I90 }
				custom_trigger_tooltip = {
					tooltip = ogre_magh_scornful_insult
					I90 = {
						has_opinion_modifier = {
							who = ROOT
							modifier = scornfully_insulted
						}
					}
				}
			}
			5028 = {
					is_core = ROOT 
					owned_by = ROOT 
			}
			5026 = {
					is_core = ROOT 
					owned_by = ROOT 
			}
			5025 = {
					is_core = ROOT 
					owned_by = ROOT 
			}
			5043 = {
					is_core = ROOT 
					owned_by = ROOT 
			}
			5042 = {
					is_core = ROOT 
					owned_by = ROOT 
			}
			5027 = {
					is_core = ROOT 
					owned_by = ROOT 
			}
		}
		
		effect = {
			add_prestige = 10
			if = {
				limit = { 
					exists = I90
					OR = {
						J37 = { is_subject_of = I90 }
						J36 = { is_subject_of = I90 }
						J35 = { is_subject_of = I90 }
					}
				}
				I90 = {
					every_subject_country = {
						limit ={
							OR = {
								tag = J37
								tag = J36
								tag = J35
							}
						}
						add_opinion = { 
							who = PREV 
							modifier = decadent_royals
						}
						add_liberty_desire = 30
					}
				}
			}
			5322 = {
				if = {
					limit = {
						NOT = { is_core = ROOT }
						NOT = { owned_by = ROOT }
					}
					add_permanent_claim = ROOT
				}
			}
			5029 = {
				if = {
					limit = {
						NOT = { is_core = ROOT }
						NOT = { owned_by = ROOT }
					}
					add_permanent_claim = ROOT
				}
			}
			5041 = {
				if = {
					limit = {
						NOT = { is_core = ROOT }
						NOT = { owned_by = ROOT }
					}
					add_permanent_claim = ROOT
				}
			}
			5040 = {
				if = {
					limit = {
						NOT = { is_core = ROOT }
						NOT = { owned_by = ROOT }
					}
					add_permanent_claim = ROOT
				}
			}
			krotavatsvi_area = {
				limit = {
					NOT = { is_core = ROOT }
					NOT = { owned_by = ROOT }
				}
				add_permanent_claim = ROOT
			}
			ghavatalur_area = {
				limit = {
					NOT = { is_core = ROOT }
					NOT = { owned_by = ROOT }
				}
				add_permanent_claim = ROOT
			}
			5003 = {
				add_base_tax = 2
				add_base_production = 2
				add_base_manpower = 2
			}
			5025 = {
				add_base_tax = -1
				add_base_production = -1
				add_base_manpower = -1
			}
			5043 = {
				add_base_tax = -1
				add_base_production = -1
				add_base_manpower = -1
			}
			5028 = {
				add_base_tax = -1
				add_base_production = -1
				add_base_manpower = -1
			}
		}
	}
	
	skurkokli_the_southlords = {
		icon = mission_kowtow
		required_missions = { skurkokli_the_northlords }
		position = 8

		provinces_to_highlight = { 
				OR = {
					province_id = 5322
					province_id = 5029
					province_id = 5041
					province_id = 5040
					area = krotavatsvi_area
					area = ghavatalur_area
				}
		}

		trigger = {
			5322 = {
					is_core = ROOT 
					owned_by = ROOT 
			}
			5026 = {
					is_core = ROOT 
					owned_by = ROOT 
			}
			5041 = {
					is_core = ROOT 
					owned_by = ROOT 
			}
			5040 = {
					is_core = ROOT 
					owned_by = ROOT 
			}
			krotavatsvi_area = {
					type = all
					is_core = ROOT 
					owned_by = ROOT 
			}
			ghavatalur_area = {
					type = all
					is_core = ROOT 
					owned_by = ROOT 
			}
		}
		
		effect = {
			add_power_projection = {
				type = mission_rewards_power_projection
				amount = 10
			}
			dzimokli_area = {
				limit = {
					NOT = { is_core = ROOT }
					NOT = { owned_by = ROOT }
				}
				add_permanent_claim = ROOT
			}
			5003 = {
				add_base_tax = 2
				add_base_production = 2
				add_base_manpower = 2
			}
			5322 = {
				add_base_tax = -1
				add_base_production = -1
				add_base_manpower = -1
			}
			5039 = {
				add_base_tax = -1
				add_base_production = -1
				add_base_manpower = -1
			}
			5035 = {
				add_base_tax = -1
				add_base_production = -1
				add_base_manpower = -1
			}
		}
	}

	skurkokli_long_live_the_king = {
		icon = mission_beheading
		required_missions = { skurkokli_the_southlords }
		position = 9
		
		provinces_to_highlight = { 
				region = ogre_valley_region
		}
		
		trigger = {
			ogre_valley_region = {
				type = all
				is_core = ROOT 
				owned_by = ROOT 
			}
		}
		
		effect = {
			add_splendor = 100
			add_power_projection = {
				type = mission_rewards_power_projection
				amount = 10
			}
			5003 = {
				add_base_tax = 1
				add_base_production = 1
				add_base_manpower = 1
			}
			5037 = {
				add_base_tax = -1
				add_base_production = -1
				add_base_manpower = -1
			}
			hidden_effect = { remove_country_modifier = skurkokli_gorger_lord_cometh }
		}	
	}
}


skurkokli_horde_marches_two = {
	slot = 2
	generic = no
	ai = yes
	potential = {
		tag = J47
		has_country_flag = horde_marches_west
	}
	has_country_shield = yes	

	
	skurkokli_into_the_swamps = {
		icon = mission_rb_conquer_wales
		required_missions = { skurkokli_horde_marches_west }
		position = 12

		provinces_to_highlight = { 
			region = northern_pass_region
		}		
		
		trigger = {
			4195 = {
				is_core = ROOT 
				owned_by = ROOT 
			}
			4182 = {
				is_core = ROOT 
				owned_by = ROOT 
			}
			num_of_owned_provinces_with = {
				region = northern_pass_region
				value = 10
			}
		}
		
		effect = {
			serpents_vale_region = { 				
				limit = {
					NOT = { is_core = ROOT }
					NOT = { owned_by = ROOT }
				}
				hidden_effect = { discover_country = ROOT }
				add_permanent_claim = ROOT 
			}
		}
	}
	
	skurkokli_balgars_legacy = {
		icon = fortress_of_belgrade
		required_missions = { skurkokli_the_greytide_falters }
		position = 15
		
		provinces_to_highlight = { 
			province_id = 740 
		}
		
		trigger = {
			mil_power = 200
			treasury = 300
			740 = { 
				has_province_modifier = castanorian_citadel
				is_core = ROOT
				owned_by = ROOT
				has_fort_building_trigger = yes
			}
		}
		
		effect = {
			add_mil_power = -200
			add_treasury = -300
			add_country_modifier = { 
				name = skurkokli_balgars_forts
				duration = -1
			}
		}
	}

	skurkokli_frosthide_resettled = {
		icon = mission_clear_the_delta
		required_missions = { skurkokli_balgars_legacy }
		position = 16

		provinces_to_highlight = {
			province_id = 741
		}
		
		trigger = {
			dip_power = 100
			treasury = 200
			741 = { 
				owned_by = ROOT
				is_core = ROOT 
			}
		}
		
		effect = {
			add_prestige = 10
			add_dip_power = -100
			add_treasury = -200
			741 = {
				change_province_name = "Risgighur"
				change_culture = bloodtooth_ogre
				change_religion = ROOT
				add_base_tax = 1
				add_base_production = 1
				add_base_manpower = 1
			}
		}
	}

	skurkokli_gems_of_giantswood = {
		icon = mission_rb_inland_india
		required_missions = { skurkokli_frosthide_resettled }
		position = 17

		provinces_to_highlight = {
			province_id = 741
		}
		
		trigger = {
			741 = { 
				owned_by = ROOT
				has_production_building_trigger = yes
				development = 15
			}
		}
		
		effect = {
			add_country_modifier = {
				name = skurkokli_locus_of_power
				duration = 3650 #10 years
			}
			741 = {
				change_trade_goods = gems
			}
		}
	}

	skurkokli_ogre_mage_lair = {
		icon = mission_conquer_alexandria
		required_missions = { 
			skurkokli_a_new_home
			skurkokli_gems_of_giantswood
		}
		position = 18
		
		provinces_to_highlight = {
			province_id = 840
		}
	
		trigger = {
			840 = {
				has_province_modifier = castanorian_citadel
				owned_by = ROOT
				is_core = ROOT
				has_tax_building_trigger = yes
				has_building = mage_tower
				development = 20
			}
		}
		
		effect = {
			840 = {
				change_province_name = "Elkir vra in Uprala"
				rename_capital = "Elkir vra in Uprala"
				save_trade_goods = yes
				change_trade_goods = damestear
				add_base_production = -3
			}
			unlock_merc_company = {
				merc_company = merc_blue_viziers
				free_merc = yes
			}
			custom_tooltip = blue_viziers_reward_tt
		}
	}
	
	skurkokli_the_borderlands = {
		icon = claim_the_borderlands
		required_missions = { skurkokli_the_ogre_horde_settles }
		position = 19
		
		provinces_to_highlight = {
			region = west_castanor_region
		}	
		
		trigger = {
			adm_power = 200
			dip_power = 200
			mil_power = 200
			treasury = 500
			west_castanor_region = { 	
				type = all
				owned_by = ROOT
				is_core = ROOT
			}
		}
		
		effect = {
			custom_tooltip = ogre_bloodtooth_settle
			hidden_effect = {
				west_castanor_region = {
					limit = {
						owned_by = ROOT
						NOT = {
							AND = {
								culture = bloodtooth_ogre
								religion = ROOT
							}
						}
					}
					change_culture = bloodtooth_ogre
					change_religion = ROOT
					add_devastation = 20
				}
			}
			add_adm_power = -200
			add_dip_power = -200
			add_mil_power = -200
			add_treasury = -500
			west_castanor_region = {
				add_province_modifier = {
					name = skurkokli_ogre_tribe_integration
					duration = 7300
				}
			}
		}
	}

	skurkokli_hand_gorger_lord = {
		icon = mission_swear_fealty_knight
		required_missions = { skurkokli_land_of_the_ogres }
		position = 21
		
		provinces_to_highlight = { 
			area = dostans_way_area
		}
		
		trigger = {
			mil_power = 200
			dostans_way_area = {
				type = all
				owned_by = ROOT
				is_core = ROOT
			}
		}
		
		effect = {
			add_mil_power = -200
			define_general = { 
				shock = 3
				fire = 4
				manuever = 3
				siege = 4
				name = "Vakrag Deathmaw"
			}
			add_country_modifier = {
				name = skurkokli_siege_engineers_1
				duration = 5475 #15 years
			}
			441 = { 			
				if = {	
					limit = {
						NOT = { is_core = ROOT }
						NOT = { owned_by = ROOT }
					}
					hidden_effect = { discover_country = ROOT }
					add_permanent_claim = ROOT 
				}
			}		
		}
	}
	
	skurkokli_the_vampire_war = {
		icon = mission_silblaidd
		required_missions = { skurkokli_hand_gorger_lord }
		position = 22
		
		provinces_to_highlight = { 
			province_id = 441
		}
		
		trigger = {
			441 = {
				owned_by = ROOT
			}
		}
		
		effect = {
			custom_tooltip = ogre_corvurian_claims
			hidden_effect = {
				dostanor_region = { 				
					limit = {
						NOT = { is_core = ROOT }
						NOT = { owned_by = ROOT }
					}
					hidden_effect = { discover_country = ROOT }
					add_permanent_claim = ROOT 
				}
				daravans_folly_region = { 				
					limit = {
						NOT = { is_core = ROOT }
						NOT = { owned_by = ROOT }
					}
					hidden_effect = { discover_country = ROOT }
					add_permanent_claim = ROOT 
				}
				ourdia_region = { 				
					limit = {
						NOT = { is_core = ROOT }
						NOT = { owned_by = ROOT }
					}
					hidden_effect = { discover_country = ROOT }
					add_permanent_claim = ROOT 
				}
				europe = {
					limit = {
						owned_by = A59
						NOT = { is_core = ROOT }
						NOT = { is_permanent_claim = ROOT }
					}
					hidden_effect = { discover_country = ROOT }
					add_permanent_claim = ROOT
				}
			}
		}
	}
	
	skurkokli_devour_dostanor = {
		icon = mission_impaled_soldies
		required_missions = { skurkokli_the_vampire_war }
		position = 23
		
		provinces_to_highlight = {
			OR = {
				region = dostanor_region
				owned_by = A59
			}
			NOT = { owned_by = ROOT }
		}
		
		trigger = {
			dostanor_region = { 	
				type = all
				owned_by = ROOT
			}
			NOT = { exists = A59 }
		}
		
		effect = {
			hidden_effect = {
				every_owned_province = {
					limit = { 
						NOT = {
							region = west_castanor_region
							region = inner_castanor_region
							region = south_castanor_region
						}
						OR = {
							region = dostanor_region
							region = daravans_folly_region
							region = ourdia_region
							superregion = deepwoods_superregion
							is_core = A59
						}
					}
					export_to_variable = {
						which = ConsumedDev
						value = development
					}
					ROOT = { change_variable = { which = ConsumedDev which = PREV } }
				}
				set_country_flag = skurkokli_randomize
				set_country_flag = skurkokli_randomize_dostanor
			}

			country_event = { id = ogre.28 days = 3 }
			custom_tooltip = ogre_consume_dostanor
		}
	}

	skurkokli_orc_slaves_work_or_be_eaten = {
		icon = mission_cope_with_refugees
		required_missions = { skurkokli_slavers }
		position = 26
		
		trigger = {
			treasury = 100
			num_of_owned_provinces_with = {
				OR = {
						region = west_castanor_region
						region = inner_castanor_region
						region = south_castanor_region
				}
				is_core = ROOT
				is_city = yes
				value = 2
				trade_goods = livestock
			}
			num_of_owned_provinces_with = {
				OR = {
						region = west_castanor_region
						region = inner_castanor_region
						region = south_castanor_region
				}
				is_core = ROOT
				is_city = yes
				value = 2
				trade_goods = grain
			}
		}
		
		effect = {
			add_treasury = -100
			small_decrease_of_orcish_tolerance_effect = yes
			random_owned_province = {
				limit = {
					OR = {
						region = west_castanor_region
						region = inner_castanor_region
						region = south_castanor_region
					}
					trade_goods = livestock
				}
				add_orcish_minority_size_effect = yes
				add_base_manpower = 1
				add_base_production = 1
			}
			random_owned_province = {
				limit = {
					OR = {
						region = west_castanor_region
						region = inner_castanor_region
						region = south_castanor_region
					}
					trade_goods = livestock
				}
				add_orcish_minority_size_effect = yes
				add_base_manpower = 1
				add_base_production = 1
			}
			random_owned_province = {
				limit = {
					OR = {
						region = west_castanor_region
						region = inner_castanor_region
						region = south_castanor_region
					}
					trade_goods = grain
				}
				add_orcish_minority_size_effect = yes
				add_base_manpower = 1
				add_base_production = 1
			}
			random_owned_province = {
				limit = {
					OR = {
						region = west_castanor_region
						region = inner_castanor_region
						region = south_castanor_region
					}
					trade_goods = grain
				}
				add_orcish_minority_size_effect = yes
				add_base_manpower = 1
				add_base_production = 1
			}
			add_country_modifier = {
				name = skurkokli_slaves_work_eaten
				duration = 18250 #50 years
			}
			change_government_reform_progress = 10
		}
	}
}

skurkokli_bottom_two = {
	slot = 2
	generic = no
	ai = yes
	potential = {
			tag = J47
			has_country_flag = the_ogretide
	}
	has_country_shield = yes
	
	skurkokli_trunk_basher_resettled = {
		icon = mission_warrior_gold
		required_missions = { skurkokli_tribes_of_bloodtooth }
		position = 29
		
		provinces_to_highlight = {
			area = gawed_area
			NOT = { owned_by = ROOT }
		}
		
		trigger = {
			dip_power = 100
			treasury = 200
			gawed_area = {
				type = all
				owned_by = ROOT
				is_core = ROOT
			}
		}
		
		effect = {
			add_prestige = 10
			add_dip_power = -100
			add_treasury = -200
			small_decrease_of_human_tolerance_effect = yes
			gawed_area = {
				change_culture = bloodtooth_ogre
				change_religion = ROOT
			}
			221 = {
				change_province_name = "Onathalkelak"
				rename_capital = "Onathalkelak"
				change_culture = bloodtooth_ogre
				change_religion = ROOT
				add_base_tax = 1
				add_base_production = 1
				add_base_manpower = 1
				add_human_minority_size_effect = yes
				change_trade_goods = slaves
			}
		}
	}
	
	skurkokli_slaves_of_the_alen = {
		icon = mission_guarded_market
		required_missions = { skurkokli_trunk_basher_resettled }
		position = 30
		
		provinces_to_highlight = {
			province_id = 221
		}
		
		trigger = {
			221 = {
				owned_by = ROOT
				has_trade_building_trigger = yes
			}
		}
		
		effect = {
			largest_decrease_of_human_tolerance_effect = yes
			221 = {
				add_province_modifier = {
					name = skurkokli_trunk_basher
					duration = -1
				}
				add_human_minority_size_effect = yes
			}
		}
	}
}

ogre_tribe_three = {
	slot = 3
	generic = no
	ai = yes
	potential = {
		OR = {
			tag = J41
			tag = J42
			tag = J43
			tag = J44
			tag = J45
			tag = J46
			tag = J47
		}
	}
	has_country_shield = yes
	
	skurkokli_drums_of_war = {
		icon = mission_rein_in_the_velamas
		required_missions = { }
		position = 1
		
		trigger = {
			army_size_percentage = 1
		}
		
		effect = {
			J41 = {
				every_owned_province = {
					limit = {
						NOT = { is_core = ROOT }
						NOT = { owned_by = ROOT }
					}
					add_permanent_claim = ROOT
				}
			}
			J42 = {
				every_owned_province = {
					limit = {
						NOT = { is_core = ROOT }
						NOT = { owned_by = ROOT }
					}
					add_permanent_claim = ROOT
				}
			}
			J43 = {
				every_owned_province = {
					limit = {
						NOT = { is_core = ROOT }
						NOT = { owned_by = ROOT }
					}
					add_permanent_claim = ROOT
				}
			}
			J44 = {
				every_owned_province = {
					limit = {
						NOT = { is_core = ROOT }
						NOT = { owned_by = ROOT }
					}
					add_permanent_claim = ROOT
				}
			}
			J45 = {
				every_owned_province = {
					limit = {
						NOT = { is_core = ROOT }
						NOT = { owned_by = ROOT }
					}
					add_permanent_claim = ROOT
				}
			}
			J46 = {
				every_owned_province = {
					limit = {
						NOT = { is_core = ROOT }
						NOT = { owned_by = ROOT }
					}
					add_permanent_claim = ROOT
				}
			}
			add_country_modifier = {
				name = drums_of_ogre
				duration = 3650
			}
		}
	}
	
	skurkokli_expand_clan = {
		icon = mission_accomodate_the_rajputs
		required_missions = { skurkokli_drums_of_war }
		position = 2
		
		trigger = {
			num_of_owned_provinces_with = {
				value = 3
				
				is_city = yes
				province_group = wild_clan_lands
			}
		}
		
		effect = {
			add_prestige = 5
			if = {
				limit = {
					num_of_owned_provinces_with = {
						value = 6
						
						is_city = yes
						province_group = wild_clan_lands
					}
				}
				capital_scope = {
					add_base_tax = 5
					add_base_production = 5
					add_base_manpower = 5
				}
				add_country_modifier = {
					name = tribal_magemar_level_4
					duration = 9125 #25 years
				}
			}
			else_if = {
				limit = {
					num_of_owned_provinces_with = {
						value = 5
						
						is_city = yes
						province_group = wild_clan_lands
					}
				}
				capital_scope = {
					add_base_tax = 4
					add_base_production = 4
					add_base_manpower = 4
				}
				add_country_modifier = {
					name = tribal_magemar_level_3
					duration = 9125 #25 years
				}
			} 
			else_if = {
				limit = {
					num_of_owned_provinces_with = {
						value = 4
						
						is_city = yes
						province_group = wild_clan_lands
					}
				}
				capital_scope = {
					add_base_tax = 3
					add_base_production = 3
					add_base_manpower = 3
				}
				add_country_modifier = {
					name = tribal_magemar_level_2
					duration = 9125 #25 years
				}
			}
			else = {
				capital_scope = {
					add_base_tax = 2
					add_base_production = 2
					add_base_manpower = 2
				}
				add_country_modifier = {
					name = tribal_magemar_level_1
					duration = 9125 #25 years
				}
			}
			every_owned_province = {
				limit = {
					NOT = { is_capital = yes }
					province_group = wild_clan_lands
				}
				add_base_tax = -1
				add_base_production = -1
				add_base_manpower = -1
			}
		}	
	}
	
	skurkokli_on_the_rise = {
		icon = mission_prepare_an_invasion_force
		required_missions = { skurkokli_expand_clan }
		position = 3
		
		trigger = {
			num_of_owned_provinces_with = {
				value = 5
				
				is_core = ROOT
				is_city = yes
				province_group = wild_clan_lands
			}
		}
		
		effect = {
			add_prestige = 10
			add_country_modifier = {
				name = rising_clan
				duration = 3650
			}
		}
	}
	
	skurkokli_eighth_clan = {
		icon = mission_fortify_mandu
		required_missions = { skurkokli_on_the_rise }
		position = 4
		
		trigger = {
			OR = {
				NOT = { exists = J47 }
				tag = J47
			}
			total_development = 50
		}
		
		effect = {
			if = {
				limit = { exists = J47 }
				add_treasury = 100
			}
			else = {
				hidden_effect = { restore_country_name = yes }
				change_tag = J47
				swap_non_generic_missions = yes
				add_prestige = 25
				set_government_rank = 2
				change_government = tribal
				add_government_reform = ogre_horde
				if = {
					limit = { has_custom_ideas = no }
					country_event = { id = ideagroups.1 } #Swap Ideas
				}
				hidden_effect = { complete_mission = skurkokli_eighth_clan }
			}
		}
	}
}

skurkokli_three = {
	slot = 3
	generic = no
	ai = yes
	potential = {
			tag = J47
	}
	has_country_shield = yes

	skurkokli_tallyman_of_the_horde = {
		icon = mission_ottoman_harem
		required_missions = { skurkokli_ogrehome }
		position = 6

		provinces_to_highlight = { province_id = 5021 }

		trigger = {
			treasury = 100
			5021 = {
				is_core = ROOT
				owned_by = ROOT
				development = 15
			}
			5003 = {
				owned_by = ROOT
				is_core = ROOT 
			}	
			custom_trigger_tooltip = {
				tooltip = ogre_rancor_rules
				has_ruler_flag = is_rancor
			}
			is_at_war = no
		}
		
		effect = {
			add_treasury = -100
			country_event = {
				id = ogre.22
			}
		}
	}

	skurkokli_gorefeast = {
		icon = mission_blood_sacrifice
		required_missions = { skurkokli_tallyman_of_the_horde }
		position = 7
		
		provinces_to_highlight = {
			province_id = 5003
		}
	
		trigger = {
			5003 = {
				is_capital_of = ROOT
				has_tax_building_trigger = yes
				development = 30
			}
			is_at_war = no
		}
		
		effect = {
			if = {
				limit = { 
					ROOT = { has_institution = feudalism }
				}
				add_adm_power = 100
				add_dip_power = 100
				add_mil_power = 100
			}
			else = {
				5003 = {
					add_institution_embracement = {
						which = feudalism
						value = 100
					}
				}
			}
		}
	}

	skurkokli_ogre_mage_cabal = {
		icon = mission_scholar_officials
		required_missions = { skurkokli_gorefeast }
		position = 8
	
		provinces_to_highlight = {
			province_id = 5037
		}
	
		trigger = {
			5003 = {
				is_capital_of = ROOT
				has_building = mage_tower
			}
			5037 = {
				owned_by = ROOT
				is_core = ROOT
			}
			NOT = { exists = I90 }
			is_at_war = no
			advisor = court_mage
		}
		
		effect = {
			add_country_modifier = { 
				name = skurkokli_ogre_magi_tech_cost
				duration = 9125 # about 25 years
			}
		}
	}	

	skurkokli_settle_horde = {
		icon = mission_rb_conquer_the_highlands
		required_missions = { skurkokli_ogre_mage_cabal }
		position = 9
		
		trigger = {
			stability = 3
			is_at_war = no
			NOT = {unrest = 1}
			has_institution = feudalism	
		}
		
		effect = {
			add_prestige = 25
			change_government = monarchy
			set_government_rank = 3
			add_government_reform = great_ogre_horde
		}
	}

	skurkokli_rise_of_the_bloodtooth = {
		icon = mission_star_comet
		required_missions = { 
			skurkokli_long_live_the_king
			skurkokli_settle_horde 
		}
		position = 10

		trigger = {
			treasury = 200
			total_development = 200
		}
		
		effect = {
			add_treasury = -200
			primary_and_ruler_culture_change = { race = ogre new_culture = bloodtooth_ogre }
			custom_tooltip = ogre_bloodtooth
			hidden_effect = {
				every_owned_province = {
					limit = { culture = fathide_ogre }
					change_culture = bloodtooth_ogre
					change_religion = ROOT
				}
				set_country_flag = bloodtooth_reform
			}
			add_government_reform = skurkokli_bloodtooth_reform
			country_event = { id = ogre.30 }
		}
	}	
}

skurkokli_horde_marches_three = {
	slot = 3
	generic = no
	ai = yes
	potential = {
			tag = J47
			has_country_flag = horde_marches_west
	}
	has_country_shield = yes

	skurkokli_horde_marches_west = {
		icon = construct_the_kiel_canal
		required_missions = { 
								skurkokli_rise_of_the_bloodtooth
								skurkokli_northern_pass
							}
		position = 11

		provinces_to_highlight = { 
			region = northern_pass_region
		}

		trigger = {
			num_of_owned_provinces_with = {
				value = 5
					
				is_core = ROOT
				is_city = yes
				region = northern_pass_region
			}	
		}
		
		effect = {
			tanning_valley_area = {
				limit = {
					NOT = { is_core = ROOT }
					NOT = { owned_by = ROOT }
				}
				add_permanent_claim = ROOT
			}
			upper_logr_area = {
				limit = {
					NOT = { is_core = ROOT }
					NOT = { owned_by = ROOT }
				}
				add_permanent_claim = ROOT
			}
			middle_logr_area = {
				limit = {
					NOT = { is_core = ROOT }
					NOT = { owned_by = ROOT }
				}
				add_permanent_claim = ROOT
			}
			lower_logr_area = {
				limit = {
					NOT = { is_core = ROOT }
					NOT = { owned_by = ROOT }
				}
				add_permanent_claim = ROOT
			}
			the_copperwood_area = {
				limit = {
					NOT = { is_core = ROOT }
					NOT = { owned_by = ROOT }
				}
				add_permanent_claim = ROOT
			}
			hidden_respite_area = {
				limit = {
					NOT = { is_core = ROOT }
					NOT = { owned_by = ROOT }
				}
				add_permanent_claim = ROOT
			}
		}
	}

	skurkokli_the_despoilers_come = {
		icon = mission_torch_fire
		required_missions = { skurkokli_horde_marches_west }
		position = 12
		
		provinces_to_highlight = { 
			OR = {
				area = tanning_valley_area
				area = upper_logr_area
				area = middle_logr_area
				area = lower_logr_area
				area = the_copperwood_area
				area = hidden_respite_area
			}
			NOT = { owned_by = ROOT }
		}
		
		trigger = {
			lower_logr_area = { 	
				type = all
				owned_by = ROOT
				is_core = ROOT
			}
			tanning_valley_area = {
				type = all
				owned_by = ROOT
				is_core = ROOT
			}
			upper_logr_area = {
				type = all
				owned_by = ROOT
				is_core = ROOT
			}
			middle_logr_area = {
				type = all
				owned_by = ROOT
				is_core = ROOT
			}
			the_copperwood_area = {
				type = all
				owned_by = ROOT
				is_core = ROOT
			}
			hidden_respite_area = {
				type = all
				owned_by = ROOT
				is_core = ROOT
			}
		}
		
		effect = {
			custom_tooltip = ogre_bloodtooth_settle
			hidden_effect = {
				northern_pass_region = {
					limit = {
						owned_by = ROOT
						NOT = {
							AND = {
								culture = bloodtooth_ogre
								religion = ROOT
							}
						}
					}
					change_culture = bloodtooth_ogre
					change_religion = ROOT
					add_devastation = 20
				}
			}
			southern_giants_tears_area = {
				limit = {
					NOT = { is_core = ROOT }
					NOT = { owned_by = ROOT }
				}
				add_permanent_claim = ROOT
			}
			northern_giants_tears_area = {
				limit = {
					NOT = { is_core = ROOT }
					NOT = { owned_by = ROOT }
				}
				add_permanent_claim = ROOT
			}	
			add_country_modifier = {
				name = skurkokli_spoils_of_war
				duration = 18250 #50 years
			}
		}
	}

	skurkokli_vore_vrorensbay = {
		icon = mission_control_the_ganges_delta
		required_missions = { skurkokli_the_despoilers_come }
		position = 13

		provinces_to_highlight = { 
			OR = {
					area = southern_giants_tears_area
					area = northern_giants_tears_area
				}
				NOT = { owned_by = ROOT }
		}
		
		trigger = {
			southern_giants_tears_area = { 	
				type = all
				owned_by = ROOT
				is_core = ROOT
			}
			northern_giants_tears_area = { 	
				type = all
				owned_by = ROOT
				is_core = ROOT
			}
		}
		
		effect = {
			custom_tooltip = ogre_bloodtooth_settle
			hidden_effect = {
				southern_giants_tears_area = {
					limit = {
						owned_by = ROOT
						NOT = {
							AND = {
								culture = bloodtooth_ogre
								religion = ROOT
							}
						}
					}
					change_culture = bloodtooth_ogre
					change_religion = ROOT
					add_devastation = 20
				}
				northern_giants_tears_area = {
					limit = {
						owned_by = ROOT
						NOT = {
							AND = {
								culture = bloodtooth_ogre
								religion = ROOT
							}
						}
					}				
					change_culture = bloodtooth_ogre
					change_religion = ROOT
					add_devastation = 20
				}
			}
			vrorenwall_area = {
				limit = {
					NOT = { is_core = ROOT }
					NOT = { owned_by = ROOT }
				}
				add_permanent_claim = ROOT
			}
			vrorenmarch_area = {
				limit = {
					NOT = { is_core = ROOT }
					NOT = { owned_by = ROOT }
				}
				add_permanent_claim = ROOT
			}
		}
	}		

	skurkokli_the_greytide_falters = {
		icon = mission_face_off
		required_missions = { skurkokli_vore_vrorensbay	}
		position = 14
		
		provinces_to_highlight = { 
			OR = {
					area = vrorenwall_area
					area = vrorenmarch_area
			}
			NOT = { owned_by = ROOT }
		}
		
		trigger = {
			vrorenwall_area = { 	
				type = all
				owned_by = ROOT
				is_core = ROOT
			}
			vrorenmarch_area = { 	
				type = all
				owned_by = ROOT
				is_core = ROOT
			}
		}
		
		effect = {
			custom_tooltip = ogre_bloodtooth_settle
			add_prestige = 20
			hidden_effect = {
				vrorenwall_area = { 	
					change_culture = bloodtooth_ogre
					change_religion = ROOT
					add_devastation = 20
				}
				vrorenmarch_area = { 
					change_culture = bloodtooth_ogre
					change_religion = ROOT
					add_devastation = 20
				}
			}
			gulletpeak_area = {
				limit = {
					NOT = { is_core = ROOT }
					NOT = { owned_by = ROOT }
				}
				hidden_effect = { discover_country = ROOT }
				add_permanent_claim = ROOT
			}
			cedesck_area = {
				limit = {
					NOT = { is_core = ROOT }
					NOT = { owned_by = ROOT }
				}
				hidden_effect = { discover_country = ROOT }
				add_permanent_claim = ROOT
			}
			wudhal_area = {
				limit = {
					NOT = { is_core = ROOT }
					NOT = { owned_by = ROOT }
				}
				hidden_effect = { discover_country = ROOT }
				add_permanent_claim = ROOT
			}	
			sondaar_area = {
				limit = {
					NOT = { is_core = ROOT }
					NOT = { owned_by = ROOT }
				}
				hidden_effect = { discover_country = ROOT }
				add_permanent_claim = ROOT
			}
			east_chillsbay_area = {
				limit = {
					NOT = { is_core = ROOT }
					NOT = { owned_by = ROOT }
				}
				hidden_effect = { discover_country = ROOT }
				add_permanent_claim = ROOT
			}
		}
	}

	skurkokli_ogre_wars = {
		icon = mission_unite_home_region
		required_missions = { skurkokli_the_greytide_falters }
		position = 15
		
		provinces_to_highlight = { 
			region = west_castanor_region
		}
		
		trigger = {
			num_of_owned_provinces_with = {
				region = west_castanor_region			
				value = 1	
				owned_by = ROOT
			}
		}	
		
		effect = {
			ebonmarck_area = {
				limit = {
					NOT = { is_core = ROOT }
					NOT = { owned_by = ROOT }
				}
				hidden_effect = { discover_country = ROOT }
				add_permanent_claim = ROOT
			}
			northyl_area = {
				limit = {
					NOT = { is_core = ROOT }
					NOT = { owned_by = ROOT }
				}
				hidden_effect = { discover_country = ROOT }
				add_permanent_claim = ROOT
			}	
			westgate_area = {
				limit = {
					NOT = { is_core = ROOT }
					NOT = { owned_by = ROOT }
				}
				hidden_effect = { discover_country = ROOT }
				add_permanent_claim = ROOT
			}
			trialmount_area = {
				limit = {
					NOT = { is_core = ROOT }
					NOT = { owned_by = ROOT }
				}
				hidden_effect = { discover_country = ROOT }
				add_permanent_claim = ROOT
			}
			lower_nath_area = {
				limit = {
					NOT = { is_core = ROOT }
					NOT = { owned_by = ROOT }
				}
				hidden_effect = { discover_country = ROOT }
				add_permanent_claim = ROOT
			}
			castonath_area = {
				limit = {
					NOT = { owned_by = ROOT }
				}
				hidden_effect = { discover_country = ROOT }
			}
			add_country_modifier = {
				name = skurkokli_ogre_invasion
				duration = 9125 #25 years
			}
		}
	}
	
	skurkokli_of_orcs_and_men = {
		icon = mission_landsknecht_soldier
		required_missions = { skurkokli_ogre_wars }
		position = 16
		
		provinces_to_highlight = { 
			OR = {
					area = ebonmarck_area
					area = northyl_area
					area = westgate_area
					area = trialmount_area
					area = lower_nath_area
				}
				NOT = { owned_by = ROOT }
		}
		
		trigger = {
			ebonmarck_area = { 	
				type = all
				owned_by = ROOT
				is_core = ROOT
			}
			northyl_area = { 	
				type = all
				owned_by = ROOT
				is_core = ROOT
			}
			westgate_area = { 	
				type = all
				owned_by = ROOT
				is_core = ROOT
			}
			trialmount_area = { 	
				type = all
				owned_by = ROOT
				is_core = ROOT
			}	
			trialmount_area = { 	
				type = all
				owned_by = ROOT
				is_core = ROOT
			}				
			lower_nath_area = { 	
				type = all
				owned_by = ROOT
				is_core = ROOT
			}		
		}
		
		effect = {
			custom_tooltip = ogre_bloodtooth_settle
			hidden_effect = {
				every_owned_province = {
					limit = {
						OR = {
							region = west_castanor_region
							region = inner_castanor_region
							region = south_castanor_region
						}
						NOT = {
							AND = {
								culture = bloodtooth_ogre
								religion = ROOT
							}
						}
					}
					change_culture = bloodtooth_ogre
					change_religion = ROOT
					add_devastation = 20
				}	
			}
			castonath_area = {
				limit = {
					NOT = { is_core = ROOT }
					NOT = { owned_by = ROOT }
				}
				add_permanent_claim = ROOT
			}
		}
	}

	skurkokli_a_new_home = {
		icon = a_strong_government
		required_missions = { skurkokli_of_orcs_and_men	}
		position = 17
		
		provinces_to_highlight = {
			area = castonath_area
			NOT = { owned_by = ROOT }
		}
		
		trigger = {
			adm_power = 100
			castonath_area = {
				type = all
				owned_by = ROOT
				is_core = ROOT
			}
		}
		
		effect = {
			add_adm_power = -100
			custom_tooltip = ogre_whitewalls_cores
			hidden_effect = {
				756 = {
					if = {
						limit = {
							NOT = { is_core = ROOT }
							NOT = { owned_by = ROOT }
						}
						add_permanent_claim = ROOT
						discover_country = ROOT
					}
				}
				860 = {
					if = {
						limit = {
							NOT = { is_core = ROOT }
							NOT = { owned_by = ROOT }
						}
						add_permanent_claim = ROOT
						discover_country = ROOT
					}
				}
				nortmere_area = {
					limit = {
						NOT = { is_core = ROOT }
						NOT = { owned_by = ROOT }
					}
					add_permanent_claim = ROOT
					discover_country = ROOT
				}
				southgate_area = {
					limit = {
						NOT = { is_core = ROOT }
						NOT = { owned_by = ROOT }
					}
					add_permanent_claim = ROOT
					discover_country = ROOT
				}
				upper_nath_area = {
					limit = {
						NOT = { is_core = ROOT }
						NOT = { owned_by = ROOT }
					}
					add_permanent_claim = ROOT
					discover_country = ROOT
				}
				oldhaven_area = {
					limit = {
						NOT = { is_core = ROOT }
						NOT = { owned_by = ROOT }
					}
					add_permanent_claim = ROOT
					discover_country = ROOT
				}
				ardent_glade_area = {
					limit = {
						NOT = { is_core = ROOT }
						NOT = { owned_by = ROOT }
					}
					add_permanent_claim = ROOT
					discover_country = ROOT
				}
				bradescker_area = {
					limit = {
						NOT = { is_core = ROOT }
						NOT = { owned_by = ROOT }
					}
					add_permanent_claim = ROOT
					discover_country = ROOT
				}
				serpentsmarck_area = {
					limit = {
						NOT = { is_core = ROOT }
						NOT = { owned_by = ROOT }
					}
					add_permanent_claim = ROOT
					discover_country = ROOT
				}
				coalwoud_area = {
					limit = {
						NOT = { is_core = ROOT }
						NOT = { owned_by = ROOT }
					}
					add_permanent_claim = ROOT
					discover_country = ROOT
				}
				yyl_moitsa_west_area = {
					add_base_manpower = -20
					add_base_tax = -20
					add_base_production = -20
					remove_core = ROOT
					destroy_province = yes
					add_permanent_province_modifier = {
						name = skurkokli_decolonized
						duration = 3650 #10 years
					}
				}
			}
			country_event = {
				id = ogre.18
			}
		}
	}

	skurkokli_the_ogre_horde_settles = {
		icon = mission_nomad
		required_missions = { skurkokli_a_new_home }
		position = 18
		
		provinces_to_highlight = {
			OR = {
				province_id = 756
				province_id = 860
				area = nortmere_area
				area = southgate_area
				area = upper_nath_area
				area = oldhaven_area
				area = ardent_glade_area
				area = bradescker_area
				area = serpentsmarck_area
				area = coalwoud_area
			}
			NOT = { owned_by = ROOT }
		}
		
		trigger = {
			adm_power = 100
			dip_power = 100
			mil_power = 100
			treasury = 200
			756 = {
				owned_by = ROOT
				is_core = ROOT
			}
			860 = {
				owned_by = ROOT
				is_core = ROOT
			}
			nortmere_area = {
				type = all
				owned_by = ROOT
				is_core = ROOT
			}
			southgate_area = {
				type = all
				owned_by = ROOT
				is_core = ROOT
			}
			upper_nath_area = {
				type = all
				owned_by = ROOT
				is_core = ROOT
			}
			oldhaven_area = {
				type = all
				owned_by = ROOT
				is_core = ROOT
			}
			ardent_glade_area = {
				type = all
				owned_by = ROOT
				is_core = ROOT
			}
			bradescker_area = {
				type = all
				owned_by = ROOT
				is_core = ROOT
			}
			serpentsmarck_area = {
				type = all
				owned_by = ROOT
				is_core = ROOT
			}
			coalwoud_area = {
				type = all
				owned_by = ROOT
				is_core = ROOT
			}
		}
		
		effect = {
			add_adm_power = -100
			add_dip_power = -100
			add_mil_power = -100
			add_treasury = -200
			hidden_effect = {
				west_castanor_region = {
					limit = {
						NOT = { is_core = ROOT }
						NOT = { owned_by = ROOT }
					}
					add_permanent_claim = ROOT
					discover_country = ROOT
				}
				inner_castanor_region = {
					limit = {
						NOT = { is_core = ROOT }
						NOT = { owned_by = ROOT }
					}
					add_permanent_claim = ROOT
					discover_country = ROOT
				}
				south_castanor_region = {
					limit = {
						NOT = { is_core = ROOT }
						NOT = { owned_by = ROOT }
					}
					add_permanent_claim = ROOT
					discover_country = ROOT
				}
				
				5018 = {
					if = {
						limit = { has_province_modifier = hulkyard_level_1 }
						remove_province_modifier = hulkyard_level_1
					}
				}
				every_owned_province = {
					limit = { 
						OR = {
							region = west_castanor_region
							region = inner_castanor_region
							region = south_castanor_region
						}
						NOT = {
							AND = {
								culture = bloodtooth_ogre
								religion = ROOT
							}
						}
					}
					change_culture = bloodtooth_ogre
					change_religion = ROOT
					add_devastation = 20
				}
				every_owned_province = {
					limit = {
						NOT = {
							region = alenic_reach_region
							superregion = escann_superregion
							superregion = western_cannor_superregion
						}
					}
					export_to_variable = {
						which = ConsumedDev
						value = development
					}
					ROOT = { change_variable = { which = ConsumedDev which = PREV } }
				}
				set_country_flag = skurkokli_randomize
				set_country_flag = skurkokli_randomize_migration
			}
			custom_tooltip = ogre_moves_to_escann			
			country_event = { id = ogre.19 days = 3 }
			hidden_effect = {
				set_country_flag = horde_settles
				swap_non_generic_missions = yes	
			}
		}
	}	

	skurkokli_march_to_the_woods = {
		icon = mission_alone_in_the_forest
		required_missions = { skurkokli_the_ogre_horde_settles }
		position = 19
		
		provinces_to_highlight = {
			region = south_castanor_region
		}	
		
		trigger = {
			adm_power = 200
			dip_power = 200
			mil_power = 200
			treasury = 500
			south_castanor_region = { 	
				type = all
				owned_by = ROOT
				is_core = ROOT
			}
		}
		
		effect = {
			custom_tooltip = ogre_bloodtooth_settle
			hidden_effect = {
				south_castanor_region = {
					limit = {
						owned_by = ROOT
						NOT = {
							AND = {
								culture = bloodtooth_ogre
								religion = ROOT
							}
						}
					}
					change_culture = bloodtooth_ogre
					change_religion = ROOT
					add_devastation = 20
				}
			}
			add_adm_power = -200
			add_dip_power = -200
			add_mil_power = -200
			add_treasury = -500
			south_castanor_region = {
				add_province_modifier = {
					name = skurkokli_ogre_tribe_integration
					duration = 7300 #20 years
				}
			}
		}
	}

	skurkokli_land_of_the_ogres = {
		icon = consolidate_switzerland
		required_missions = { 
			skurkokli_along_the_upper_alen
			skurkokli_the_borderlands
			skurkokli_march_to_the_woods
		}
		position = 20
		
		provinces_to_highlight = {
			OR = {
				region = inner_castanor_region
				region = west_castanor_region
				region = south_castanor_region
			}
		}
		
		trigger = {
			adm_power = 100
			dip_power = 100
			833 = {
				is_capital_of = ROOT
			}
		}
		
		effect = {
			add_adm_power = -100
			add_dip_power = -100
			add_stability_or_adm_power = yes
			add_prestige = 25
			add_country_modifier = {
				name = skurkokli_ogrerealm
				duration = 18250 #50 years
			}
			hidden_effect = {
				set_country_flag = ogrerealm
				swap_non_generic_missions = yes	
			}
		}
	}		

	skurkokli_orc_fodder = {
		icon = mission_integrate_the_purbias
		required_missions = { skurkokli_land_of_the_ogres }
		position = 21
		
		trigger = {
			army_size = 120
			num_of_owned_provinces_with = {
				has_manpower_building_trigger = yes
				
				value = 25
			}
		}
		
		effect = {
			add_prestige = 25
			small_decrease_of_orcish_tolerance_effect = yes
			add_country_modifier = {
				name = skurkokli_orc_fodder
				duration = 7300 #20 years
			}
		}
	}

	
	skurkokli_ogre_vanguard = {
		icon = mission_forest_pilgrim
		required_missions = { skurkokli_orc_fodder }
		position = 22
		
		provinces_to_highlight = {
			province_id = 230
		}
		
		trigger = {
			230 = {
				owned_by = ROOT
				is_core = ROOT
			}
		}
		
		effect = {
			alenic_frontier_region = {
				limit = {
					NOT = { is_core = ROOT }
					NOT = { owned_by = ROOT }
				}
				hidden_effect = { discover_country = ROOT }
				add_permanent_claim = ROOT
			}
			add_country_modifier = {
				name = skurkokli_ogre_vanguard
				duration = 5475 #15 years
			}
			hidden_effect = {
				set_country_flag = the_ogretide
				swap_non_generic_missions = yes
			}
		}
	}
	
	skurkokli_the_ogretide = {
		icon = mission_levantine_restoration
		required_missions = { skurkokli_ogre_vanguard }
		position = 23
		
				
		provinces_to_highlight = {
			region = alenic_frontier_region
		}
		
		trigger = {
			num_of_owned_provinces_with = {
				region = alenic_frontier_region
				value = 10
			}
		}
		
		effect = {
			western_cannor_superregion = {
				limit = {
					NOT = { is_core = ROOT }
					NOT = { owned_by = ROOT }
				}
				hidden_effect = { discover_country = ROOT }
				add_permanent_claim = ROOT
			}
			hidden_effect = {
				dameshead_sea_region = {
					discover_country = ROOT
				}
			}
			add_country_modifier = {
				name = skurkokli_ogre_apocalypse
				duration = 36500 #100 years
			}
		}
	}
	
	skurkokli_eaters_of_the_world = {
		icon = mission_burning_parthenon
		required_missions = { 
			skurkokli_devour_dostanor
			skurkokli_the_ogretide 
		}
		position = 24
		
		provinces_to_highlight = {
			superregion = western_cannor_superregion
		}
		
		trigger = {
			67 = { 	
				owned_by = ROOT
			}
			8 = { 	
				owned_by = ROOT
			}
			221 = { 	
				owned_by = ROOT
			}
			306 = { 	
				owned_by = ROOT
			}
			num_of_owned_provinces_with = {
				region = lencenor_region
				value = 20
			}
			num_of_owned_provinces_with = {
				region = small_country_region
				value = 20
			}
			num_of_owned_provinces_with = {
				region = dragon_coast_region
				value = 20
			}
			num_of_owned_provinces_with = {
				region = damescrown_region
				value = 20
			}
			num_of_owned_provinces_with = {
				region = west_dameshead_region
				value = 20
			}
			num_of_owned_provinces_with = {
				region = east_dameshead_region
				value = 20
			}
			num_of_owned_provinces_with = {
				region = esmaria_region
				value = 20
			}
			num_of_owned_provinces_with = {
				region = the_borders_region
				value = 20
			}
			num_of_owned_provinces_with = {
				region = businor_region
				value = 20
			}
			num_of_owned_provinces_with = {
				region = forlorn_vale_region
				value = 20
			}
			num_of_owned_provinces_with = {
				region = alenic_frontier_region
				value = 20
			}
		}
		
		effect = {
			hidden_effect = {
				every_owned_province = {
					limit = { 
						superregion = western_cannor_superregion
						NOT = { culture_group = ogre }
					}
					export_to_variable = {
						which = ConsumedDev
						value = development
					}
					ROOT = { change_variable = { which = ConsumedDev which = PREV } }
				}
				set_country_flag = skurkokli_randomize
				set_country_flag = skurkokli_randomize_cannor
			}
			country_event = { id = ogre.21 days = 3 }
			custom_tooltip = ogre_consume_western_cannor
		}
	}

	skurkokli_slavers = {
		icon = mission_raid_on_iceland
		required_missions = { }
		position = 25

		provinces_to_highlight = {
			province_id = 832
		}
		
		trigger = {
			adm_power = 100
			mil_power = 100
			treasury = 500
			832 = {
				has_province_modifier = skurkokli_new_ogrehome
				development = 30				
				has_trade_building_trigger = yes
			}
		}
		
		effect = {
			add_adm_power = -100
			add_mil_power = -100
			add_treasury = -500
			large_decrease_of_orcish_tolerance_effect = yes
			832 = {
				add_orcish_minority_size_effect = yes
				add_province_modifier = {
					name = skurkokli_orc_slave_market
					duration = -1
				}
				change_trade_goods = slaves
			}
		}
	}

	skurkokli_orc_slaves_mines_of_marrhold = {
		icon = mission_rb_prospect_for_coal
		required_missions = { skurkokli_slavers }
		position = 26

		provinces_to_highlight = {
				province_id = 4097
		}		
		
		trigger = {	
			treasury = 200
			num_of_owned_provinces_with = {
				OR = {
						region = west_castanor_region
						region = inner_castanor_region
						region = south_castanor_region
				}
				is_core = ROOT
				is_city = yes
				value = 3
				trade_goods = iron
			}
			4097 = { 
				is_core = ROOT
				owned_by = ROOT
				development = 10
			}
		}
		
		effect = {
			add_treasury = -200
			small_decrease_of_orcish_tolerance_effect = yes
			4097 = { 
				add_base_tax = 1
				add_base_production = 1
				add_orcish_minority_size_effect = yes
			}
			add_country_modifier = {
				name = skurkokli_slave_marrhold_mines
				duration = 9125 #25 years
			}
			change_government_reform_progress = 15
		}
	}
	
	skurkokli_orc_slaves_industry = {
		icon = mission_rb_build_furnaces
		required_missions = { 
			skurkokli_orc_slaves_mines_of_marrhold
			skurkokli_orc_slaves_bronze_cannons
			skurkokli_orc_slaves_work_or_be_eaten
		}
		position = 27

		provinces_to_highlight = {
				province_id = 862
		}			

		trigger = {	
			treasury = 300
			862 = { 
				owned_by = ROOT
				has_building = furnace
				development = 25
			}
		}
		
		effect = {
			add_treasury = -300
			small_decrease_of_orcish_tolerance_effect = yes
			862 = {
				add_base_production = 2
				add_orcish_minority_size_effect = yes
			}
			add_country_modifier = {
				name = skurkokli_industry_slaves
				duration = 7300 #20 years
			}
			change_government_reform_progress = 20
		}
	}
}

skurkokli_bottom_three = {
	slot = 3
	generic = no
	ai = yes
	potential = {
			tag = J47
			has_country_flag = the_ogretide
	}
	has_country_shield = yes

	skurkokli_tribes_of_bloodtooth = {
		icon = balance_of_power
		required_missions = { }
		position = 28
	
		provinces_to_highlight = { 
			superregion = western_cannor_superregion 
		}	
	
		trigger = {
			num_of_owned_provinces_with = {
				superregion = western_cannor_superregion			
				value = 1	
				owned_by = ROOT
			}
		}
		
		effect = {
			add_country_modifier = {
				name = skurkokli_tribes_of_bloodtooth_morale
				duration = 9125 #25 years
			}
		}
	}
}

ogre_tribe_four = {
	slot = 4
	generic = no
	ai = yes
	potential = {
		OR = {
			tag = J41
			tag = J42
			tag = J43
			tag = J44
			tag = J45
			tag = J46
		}
	}
	has_country_shield = yes
	
	skurkokli_reinforce_tribe = {
		icon = mission_secure_the_malabar_coast
		required_missions = { }
		position = 1
		
		trigger = {
			years_of_income = 2
			adm_power = 100
			custom_trigger_tooltip = {
				tooltip =  not_skurkokli_tooltip
			}
		}
		
		effect = {
			hidden_effect = { set_country_flag = ecocap_mission_1 }
			add_years_of_income = -2
			add_adm_power = -100
			add_country_modifier = {
				name = reinforced_tribe
				duration = 9125
			}
		}
	}
	
	skurkokli_war_hoard = {
		icon = mission_entrepot_of_india
		required_missions = { skurkokli_reinforce_tribe }
		position = 2
		
		trigger = {
			years_of_income = 3
			adm_power = 75
			custom_trigger_tooltip = {
				tooltip =  not_skurkokli_tooltip
			}
		}
		
		effect = {
			hidden_effect = { 
				clr_country_flag = ecocap_mission_1
				set_country_flag = ecocap_mission_2
			}
			add_years_of_income = -3
			add_adm_power = -75
			add_country_modifier = {
				name = war_vault
				duration = 9125
			}
		}
	}

	skurkokli_warm_clothing = {
		icon = mission_gharbianss
		required_missions = { skurkokli_war_hoard }
		position = 3
		
		trigger = {
			any_owned_province = {
				OR = {
					trade_goods = fur
					trade_goods = cotton
				}
			}
			custom_trigger_tooltip = {
				tooltip =  not_skurkokli_tooltip
			}
		}
		
		effect = {
			hidden_effect = { 
				clr_country_flag = ecocap_mission_2
				set_country_flag = ecocap_mission_3
			}
			add_country_modifier = {
				name = warm_clothing
				duration = 5475
			}
		}
	}
}

skurkokli_dummy_four = {
	slot = 4
	generic = no
	ai = yes
	potential = {
			tag = J47
	}
	has_country_shield = yes
}

skurkokli_four = {
	slot = 4
	generic = no
	ai = yes
	potential = {
			tag = J47
	}
	has_country_shield = yes

	skurkokli_land_of_the_wild_clans = {
		icon = mission_extent_yasak_to_the_east
		required_missions = { skurkokli_eighth_clan }
		position = 5
		
		provinces_to_highlight = { province_group = wild_clan_lands }
		
		trigger = {
			num_of_owned_provinces_with = {
				value = 6
					
				is_core = ROOT
				is_city = yes
				province_group = wild_clan_lands
			}
		}
		
		effect = {
			add_country_modifier = {
				name = skurkokli_ogre_settlers
				duration = 18250 #50 years
			}
			5004 = {
				add_permanent_claim = ROOT
			}
			5003 = {
				add_permanent_claim = ROOT
			}
		}
	}

	skurkokli_tribal_exodus_begins = {
		icon = mission_expel_the_moriscos
		required_missions = { skurkokli_land_of_the_wild_clans }
		position = 6
		
		provinces_to_highlight = { 
			OR = {
				province_id = 5004
				province_id = 5003
			}
		}		
		
		trigger = {					
			5004 = {
				owned_by = ROOT
				is_core = ROOT
				is_city = yes
			}
			if = {
				limit = { 
					5003 = {
						OR = {
							is_city = no
							owned_by = ROOT
						}
					}
				}
				5003 = {
					infantry_in_province = 1
					infantry_in_province = J47
				}
			}
			else = {
				5003 = {
					owned_by = ROOT
					is_core = ROOT
					is_city = yes
				}
			}
		}
		
		effect = {
			5004 = {
				change_province_name = "In Nakbit"
				rename_capital = "In Nakbit"
				hidden_effect = {
					change_culture = fathide_ogre
					change_religion = ROOT
				}
			}
			if = {
				limit = { 
					5003 = {
						NOT = {
							owned_by = ROOT 
						}
					}
				}
				5003 = {
					add_siberian_construction = 1000
					kill_units = {
						who = owner
						type = infantry
						amount = 1
					}
				}
			}
			else = {
				5003 = {
					add_base_manpower = 1
					add_base_tax = 1
					add_base_production = 1
				}
			}
		}
	}	
		
	skurkokli_mass_migration = {
		icon = mission_settlers_north_america
		required_missions = { skurkokli_tribal_exodus_begins }
		position = 7
		
		provinces_to_highlight = { province_id = 5003 }
		
		trigger = {
			owns_core_province = 5003
			custom_trigger_tooltip = {
				tooltip = ogre_rancor_rules
				has_ruler_flag = is_rancor
			}
		}
		
		effect = {
			add_country_modifier = {
				name = skurkokli_wild_clan_settlers
				duration = 9125 #25 years
			}
			add_country_modifier = {
				name = skurkokli_wild_clan_colonist
				duration = 18250 #50 years
			}
			yyl_moista_region = {
				limit = {
					NOT = { is_core = ROOT }
					NOT = { owned_by = ROOT }
				}
				add_permanent_claim = ROOT
			}
		}
	}	
	
	skurkokli_frost_forest = {
		icon = mission_alone_in_the_wood
		required_missions = { skurkokli_mass_migration }		
		position = 8
	
		provinces_to_highlight = { 
			region = yyl_moista_region 
		}
	
		trigger = {					
			num_of_owned_provinces_with = {
				value = 6
					
				is_core = ROOT
				is_city = yes
				region = yyl_moista_region
			}
		}
		
		effect = {
			add_country_modifier = {
				name = skurkokli_settle_yyl_moitsa
				duration = 9125 #25 years
			}
			4198 = {
				add_permanent_claim = ROOT
			}
			4201 = {
				add_permanent_claim = ROOT
			}
		}
	}	
}

skurkokli_horde_marches_four = {
	slot = 4
	generic = no
	ai = yes
	potential = {
		tag = J47
		has_country_flag = horde_marches_west
	}
	has_country_shield = yes


	skurkokli_northern_pass = {
		icon = prosper_in_piedmont
		required_missions = { skurkokli_frost_forest }
		position = 10
		
		provinces_to_highlight = {
			OR = {
				area = far_moitsa_area
				province_id = 4198
				province_id = 4201
			}
		}
		
		trigger = {
			OR = {
				4198 = {
					owned_by = ROOT
					is_core = ROOT
					is_city = yes
				}
				4201 = {
					owned_by = ROOT
					is_core = ROOT
					is_city = yes
				}
			}
			far_moitsa_area = {
				type = all
				owned_by = ROOT
				is_core = ROOT
			}
		}
		
		effect = {
			if = {
				limit = {
					OR = {
						4176 = {
							NOT = {
								is_city = yes
							}
						}
						4189 = {
							NOT = {
								is_city = yes
							}
						}
						4182 = {
							NOT = {
								is_city = yes
							}
						}
					}
				}
				add_country_modifier = {
					name = skurkokli_settle_northern_pass_2
					duration = 14600 #40 years
				}				
			}
			else = {
				add_country_modifier = {
					name = skurkokli_settle_northern_pass_1
					duration = 14600 #40 years
				}
			}
		}
	}
	
	skurkokli_gaining_entrance = {
		icon = the_alpine_wall
		required_missions = { skurkokli_horde_marches_west }
		position = 12
		
		provinces_to_highlight = {
				area = tanning_valley_area
		}
		
		trigger = {
			tanning_valley_area = { 
				type = all
				owned_by = ROOT
				is_core = ROOT 
			}
		}
				
		effect = {
			anvils_horn_area = { 				
				limit = {
					NOT = { is_core = ROOT }
					NOT = { owned_by = ROOT }
				}
				hidden_effect = { discover_country = ROOT }
				add_permanent_claim = ROOT 
			}
			krakdhum_area = { 
				limit = {
					NOT = { is_core = ROOT }
					NOT = { owned_by = ROOT }
				}
				hidden_effect = { discover_country = ROOT }
				add_permanent_claim = ROOT 
			}
			dead_end_tunnel_area = {
				limit = {
					NOT = { is_core = ROOT }
					NOT = { owned_by = ROOT }
				}
				hidden_effect = { discover_country = ROOT }
				add_permanent_claim = ROOT 
			}
		}
	}
	
	skurkokli_scour_the_tunnels = {
		icon = mission_ghost_town
		required_missions = { skurkokli_gaining_entrance }
		position = 13
		
		provinces_to_highlight = {
			OR = {
				province_id = 4208
				owned_by = I02
			}
		}
		
		trigger = {
			4208 = { 	
				owned_by = ROOT
			}
			NOT = { exists = I02 }
		}
		
		effect = {
			hidden_effect = {
				every_owned_province = {
					limit = { 
						region = west_dwarovar_region
					}
					export_to_variable = {
						which = ConsumedDev
						value = development
					}
					ROOT = { change_variable = { which = ConsumedDev which = PREV } }
				}
				set_country_flag = skurkokli_randomize
				set_country_flag = skurkokli_randomize_dwarovar
			}
			country_event = { id = ogre.16 days = 3 }
			custom_tooltip = ogre_consume_north_dwarves
		}
	}
	
	skurkokli_ogre_raiders = {
		icon = mission_abu_saids_dream
		required_missions = { skurkokli_vore_vrorensbay }
		position = 14

		trigger = {
			army_size = 50
			manpower = 10
		}
		
		effect = {
			add_manpower = -10
			add_country_modifier = {
				name = skurkokli_ogre_raids
				duration = 18250 #50 years
			}
		}
	}

	skurkokli_war_on_reach = {
		icon = the_latin_empire 
		required_missions = { skurkokli_the_greytide_falters }
		position = 15
		
		provinces_to_highlight = { 
			OR = {
					area = gulletpeak_area
					area = cedesck_area
					area = wudhal_area
					area = sondaar_area
					area = east_chillsbay_area				
				}
				NOT = { owned_by = ROOT }
		}
		
		trigger = {
			gulletpeak_area = {
				type = all
				owned_by = ROOT
			}
			cedesck_area = {
				type = all
				owned_by = ROOT
			}
			wudhal_area = {
				type = all
				owned_by = ROOT
			}	
			sondaar_area = {
				type = all
				owned_by = ROOT
			}
			east_chillsbay_area = {
				type = all
				owned_by = ROOT
			}
		}	
		
		effect = {
			custom_tooltip = ogre_bloodtooth_settle
			hidden_effect = {
				alenic_reach_region = {
					limit = {
						owned_by = ROOT
						NOT = {
							OR ={
								area = vrorenwall_area
								area = vrorenmarch_area
							}
						}
					}
					change_culture = bloodtooth_ogre
					change_religion = ROOT
					add_devastation = 20
				}
			}
			alenic_reach_region = {
				limit = {
					NOT = { is_core = ROOT }
					NOT = { owned_by = ROOT }
				}
				add_permanent_claim = ROOT
				hidden_effect = { discover_country = ROOT }
			}
		}
	}
	
	skurkokli_reachs_reckoning = {
		icon = mission_destroyed_city
		required_missions = { skurkokli_war_on_reach }
		position = 17
		
		provinces_to_highlight = {
			region = alenic_reach_region
		}
		
		trigger = {
			num_of_owned_provinces_with = {
				region = alenic_reach_region
				value = 30
			}
		}	
		
		effect = {
			hidden_effect = {
				if = { 
					limit = { has_country_flag = war_against_fed } 
					every_owned_province = {
						limit = {
							region = alenic_reach_region
							NOT = {
								OR = {
									area = vrorenwall_area
									area = vrorenmarch_area
								}
							}
						}
						export_to_variable = {
							which = ConsumedDev
							value = development
						}
						ROOT = { change_variable = { which = ConsumedDev which = PREV } }
					}
				}
				else = { 
					every_owned_province = {
						limit = {
							region = alenic_reach_region
						}
						export_to_variable = {
							which = ConsumedDev
							value = development
						}
						ROOT = { change_variable = { which = ConsumedDev which = PREV } }
					}
				}
				set_country_flag = skurkokli_randomize
				set_country_flag = skurkokli_randomize_reach
			}
			country_event = { id = ogre.24 days = 3 }
			custom_tooltip = ogre_consume_reach
		}
	}

	skurkokli_the_goldlord = {
		icon = reform_the_monte
		required_missions = { skurkokli_a_new_home }
		position = 18
		
		provinces_to_highlight = { 
			province_id = 831 
		}
		
		trigger = {
			treasury = 200
			831 = { 
				has_province_modifier = skurkokli_new_ogrehome
				is_core = ROOT
				owned_by = ROOT
				development = 25
				has_production_building_trigger = yes
			}
		}
		
		effect = {
			add_treasury = -200
			831 = { 
				change_culture = bloodtooth_ogre
				change_religion = ROOT
				add_local_autonomy = -30
				change_trade_goods = gold
			}
			add_country_modifier = {
				name = skurkokli_gold_vault
				duration = 9125 #25 years
			}
			hidden_effect = {
				5021 = {
					if = {
						limit = { culture = bloodtooth_ogre }
						change_trade_goods = fur
					}
				}
			}
		}
	}

	skurkokli_along_the_upper_alen = {
		icon = mission_advance_to_the_dnieper
		required_missions = { skurkokli_the_ogre_horde_settles	}
		position = 19
		
		provinces_to_highlight = {
			region = inner_castanor_region
		}	
		
		trigger = {
			adm_power = 200
			dip_power = 200
			mil_power = 200
			treasury = 500
			inner_castanor_region = { 	
				type = all
				owned_by = ROOT
				is_core = ROOT
			}
		}
		
		effect = {
			custom_tooltip = ogre_bloodtooth_settle
			hidden_effect = {
				inner_castanor_region = {
					limit = {
						owned_by = ROOT
						NOT = {
							AND = {
								culture = bloodtooth_ogre
								religion = ROOT
							}
						}
					}
					change_culture = bloodtooth_ogre
					change_religion = ROOT
					add_devastation = 20
				}
			}
			add_adm_power = -200
			add_dip_power = -200
			add_mil_power = -200
			add_treasury = -500
			inner_castanor_region = {
				add_province_modifier = {
					name = skurkokli_ogre_tribe_integration
					duration = 7300
				}
			}
		}
	}
	

	skurkokli_this_land_is_our_land = {
		icon = mission_secure_khandesh
		required_missions = { skurkokli_along_the_upper_alen }
		position = 21
		
		trigger = {
			total_development = 1500
		}
		
		effect = {
			add_prestige = 25
			add_country_modifier = {
				name = skurkokli_our_land
				duration = 7300 #20 years
			}
		}
	}
}

skurkokli_fed_war_b_four = {
	slot = 4
	generic = no
	ai = yes
	potential = {
		tag = J47
		has_country_flag = war_against_fed
		has_country_flag = fed_war_completed
		has_country_flag = ravage_reavers_completed
	}
	has_country_shield = yes	
	
	skurkokli_ogre_island = {
		icon = mission_retake_ceuta
		required_missions = { }
		position = 22
		
		provinces_to_highlight = {
				area = isle_of_tef_area
				NOT = { owned_by = ROOT }
		}
		
		trigger = {
			treasury = 300
			isle_of_tef_area = {
				type = all
				owned_by = ROOT
				is_core = ROOT
			}
		}
		
		effect = {
			add_prestige = 10
			add_treasury = -300
			isle_of_tef_area = {
				change_culture = bloodtooth_ogre
				change_religion = ROOT
				add_base_manpower = 1
			}
			hidden_effect = {
				divenhal_sea_region = {
					discover_country = ROOT
				}
				dameshead_sea_region = {
					discover_country = ROOT
				}
				westcoast_region = {
					discover_country = ROOT
				}
			}
		}
	}
	
	skurkokli_hungerport_hulkyard = {
		icon = secure_dejima
		required_missions = { skurkokli_ogre_island }
		position = 23
		
		provinces_to_highlight = {
			province_id = 380
		}
		
		trigger = {
			dip_power = 200
			380 = {
				has_shipyard_building_trigger = yes
				has_building = impressment_offices
			}
		}
		
		effect = {
			add_dip_power = -200
			380 = {
				change_province_name = "Vulshimortif"
				rename_capital = "Vulshimortif"
				add_province_modifier = {
					name = hulkyard_level_3
					duration = -1
				}
				change_trade_goods = naval_supplies
				add_base_tax = 2
				add_base_production = 2
				add_base_manpower = 2
			}
			hidden_effect = {
				736 = {
					remove_province_modifier = hulkyard_level_2
				}
			}
		}
	}
	
	skurkokli_devouring_armada = {
		icon = reclaim_the_aegean 
		required_missions = { 
								skurkokli_the_ogretide
								skurkokli_hungerport_hulkyard
							}
		position = 24
		
		trigger = {
            num_of_heavy_ship = 20
		}
				
		effect = {
			add_country_modifier = { 
				name = skurkokli_piracy_level_3
				duration = -1
       		}
		}
	}
}

skurkokli_horde_c_four = {
	slot = 4
	generic = no
	ai = yes
	potential = {
		tag = J47
		has_country_flag = horde_marches_west
	}
	has_country_shield = yes
	
	skurkokli_orc_slaves_bronze_cannons = {
		icon = mission_cannons_firing
		required_missions = { skurkokli_slavers }
		position = 26
		
		trigger = {
			treasury = 100
			num_of_owned_provinces_with = {
				OR = {
						region = west_castanor_region
						region = inner_castanor_region
						region = south_castanor_region
				}
				is_core = ROOT
				is_city = yes
				value = 3
				trade_goods = copper
			}		
		}			
		effect = {
			add_treasury = -100
			small_decrease_of_orcish_tolerance_effect = yes
			random_owned_province = {
				limit = {
					OR = {
						region = inner_castanor_region
						region = west_castanor_region
						region = south_castanor_region
					}
					trade_goods = copper
				}
				add_orcish_minority_size_effect = yes
				add_base_production = 1
				add_base_manpower = 1
			}
			add_country_modifier = {
				name = skurkokli_slave_bronze_boomsticks
				duration = 9125
			}
			change_government_reform_progress = 10
		}
	}
}

skurkokli_bottom_four = {
	slot = 4
	generic = no
	ai = yes
	potential = {
			tag = J47
			has_country_flag = the_ogretide
	}
	has_country_shield = yes
	
	skurkokli_skull_gnasher_resettled = {
		icon = mission_dominate_persian_gulf
		required_missions = { skurkokli_tribes_of_bloodtooth }
		position = 29
		
		provinces_to_highlight = { 
			area = viswall_area
			NOT = { owned_by = ROOT }
		}
		
		trigger = {
			dip_power = 100
			treasury = 200
			viswall_area = { 
				type = all
				owned_by = ROOT
				is_core = ROOT
			}
		}
		
		effect = {
			add_prestige = 10
			add_dip_power = -100
			add_treasury = -200
			small_decrease_of_halfling_tolerance_effect = yes
			63 = {
				change_province_name = "Loethrg Naktuprala"
				rename_capital = "Loethrg Naktuprala"
				change_culture = bloodtooth_ogre
				change_religion = ROOT
				add_base_tax = 1
				add_base_production = 1
				add_base_manpower = 1
				add_halfling_minority_size_effect = yes
				change_trade_goods = livestock
			}
			66 = {
				change_province_name = "Khrejur Naktuprala"
				rename_capital = "Khrejur Naktuprala"
				change_culture = bloodtooth_ogre
				change_religion = ROOT
				add_base_tax = 1
				add_base_production = 1
				add_base_manpower = 1
				add_halfling_minority_size_effect = yes
				change_trade_goods = livestock
			}
		}
	}
	
	skurkokli_bakeries_of_viswall = {
		icon = mission_rice_field
		required_missions = { skurkokli_skull_gnasher_resettled }
		position = 30
		
		trigger = {
			63 = {
				owned_by = ROOT
				has_building = farm_estate
			}
			66 = {
				owned_by = ROOT
				has_building = farm_estate
			}
		}
		
		effect = {
			largest_decrease_of_halfling_tolerance_effect = yes
			63 = {
				add_halfling_minority_size_effect = yes
				add_province_modifier = {
					name = skurkokli_skull_gnasher
					duration = -1
				}
			}
			66 = {
				add_halfling_minority_size_effect = yes
				add_province_modifier = {
					name = skurkokli_skull_gnasher
					duration = -1
				}
			}
		}
	}
}

skurkokli_dummy_five = {
	slot = 5
	generic = no
	ai = yes
	potential = {
			tag = J47
	}
	has_country_shield = yes
}

skurkokli_fed_war_a_five = {
	slot = 5
	generic = no
	ai = yes
	potential = {
		tag = J47
		has_country_flag = war_against_fed
	}
	has_country_shield = yes

	
	skurkokli_ogre_coast = {
		icon = mission_rb_conquer_the_isles
		required_missions = { skurkokli_eighth_clan }
		position = 5

		trigger = {
			mil_power = 100
			num_of_total_ports = 4
		}
		
		effect = {
			add_mil_power = -100
			add_country_modifier = { 
				name = ogrish_hulks
				duration = -1
       		}
			add_sailors = 1000	
			hidden_effect = {
				every_owned_province = {
					limit = { region = yyl_moista_region }
					change_culture = bloodtooth_ogre
					change_religion = ROOT
				}
			}
		}
	}
	
	skurkokli_hulkyard = {
		icon = mission_rb_grow_the_channel
		required_missions = { skurkokli_ogre_coast }
		position = 6
		
		provinces_to_highlight = { province_id = 5018 }
		
		trigger = {
			dip_power = 200
			5018 = {
				owned_by = ROOT
				is_core = ROOT
				OR = {
					has_shipyard_building_trigger = yes
					has_dock_building_trigger = yes
				}
			}
		}
		
		effect = {
			add_dip_power = -200
			5018 = {
				change_culture = bloodtooth_ogre
				change_religion = ROOT
				change_province_name = "Dzimortif"
				rename_capital = "Dzimortif"
				add_province_modifier = {
					name = hulkyard_level_1
					duration = -1
				}
				add_base_tax = 1
				add_base_production = 1
				add_base_manpower = 1
				change_trade_goods = naval_supplies
			}
		}
	}
	
	skurkokli_ogre_piracy = {
		icon = mission_fleet_arrival
		required_missions = { skurkokli_hulkyard }
		position = 7
		
		trigger = {
			navy_size_percentage = 1
		}
		
		effect = {
			define_admiral = { 
				shock = 3
				fire = 3
				manuever = 4
				siege = 3
				name = "Barboza Saltbreath"
				trait = buccaneer_personality
			}
			add_country_modifier = { 
				name = skurkokli_piracy_level_1
				duration = 9125 #25 years
       		}
		}
	}
	
	skurkokli_war_against_fed = {
		icon = mission_the_battle_for_raichur
		required_missions = { skurkokli_ogre_piracy }
		position = 5

		trigger = {
			if = {
				limit = { NOT = { has_global_flag = lake_federation_formed } }
				OR = {
					custom_trigger_tooltip = {
						tooltip = disband_the_federation_tooltip
						has_country_flag = disbanded_lake_federation
					}
					any_known_country = {
						has_country_modifier = lake_federation_member
						war_with = ROOT
					}
				}
			}
			else = {
				OR = {
					war_with = J33
					any_known_country = {
						capital_scope = {
							OR = {
								region = southern_isles_region 
								region = northern_isles_region 
							}
						}
					}
				}
			}
		}
		
		
		effect = {
			gadhlumo_area = {
				limit = {
					NOT = { is_core = ROOT }
					NOT = { owned_by = ROOT }
				}
				add_permanent_claim = ROOT
			}
			yuurarila_area = {
				limit = {
					NOT = { is_core = ROOT }
					NOT = { owned_by = ROOT }
				}
				add_permanent_claim = ROOT
			}
			kuskemua_area = {
				limit = {
					NOT = { is_core = ROOT }
					NOT = { owned_by = ROOT }
				}
				add_permanent_claim = ROOT
			}
			peenadhi_area = {
				limit = {
					NOT = { is_core = ROOT }
					NOT = { owned_by = ROOT }
				}
				add_permanent_claim = ROOT
			}
			add_country_modifier = { 
				name = skurkokli_ogre_invasion
				duration = 9125 #25 years
			}
			hidden_effect = {
				every_owned_province = {
					limit = { region = yyl_moista_region }
					change_culture = bloodtooth_ogre
					change_religion = ROOT
				}
			}
		}
	}

	skurkokli_foothold_in_the_lakes = {
		icon = mission_pf_map_table
		required_missions = { skurkokli_war_against_fed	}
		position = 9
		
		provinces_to_highlight = { region = southern_isles_region }
		
		trigger = {
			num_of_owned_provinces_with = {
				value = 1
				region = southern_isles_region
			}
		}
		
		effect = {
			southern_isles_region = {
				limit = {
					NOT = { is_core = ROOT }
					NOT = { owned_by = ROOT }
				}
				add_permanent_claim = ROOT
			}
			northern_isles_region = {
				limit = {
					NOT = { is_core = ROOT }
					NOT = { owned_by = ROOT }
				}
				add_permanent_claim = ROOT
			}
			hidden_effect = {
				every_owned_province = {
					limit = { 
						superregion = forbidden_lands_superregion 
					}
					change_culture = bloodtooth_ogre
					change_religion = ROOT
					add_devastation = 20
				}
			}
		}
	}
	
	skurkokli_consume_the_federation = {
		icon = mission_burning_castle
		required_missions = { skurkokli_foothold_in_the_lakes }
		position = 10
		
		provinces_to_highlight = {
			OR = {
				region = southern_isles_region
				region = northern_isles_region
			}
		}
		
		trigger = {
			num_of_owned_provinces_with = {
				OR = {
					region = northern_isles_region
					region = southern_isles_region
				}
				value = 15
			}
			custom_trigger_tooltip = {
				tooltip = ogre_lake_fed_war_end
			}
		}
		
		effect = {
			hidden_effect = {
				every_owned_province = {
					limit = { 
						superregion = forbidden_lands_superregion
						NOT = {
							OR = {
								region = ogre_valley_region
								area = yyl_moitsa_west_area
								area = far_moitsa_area
							}
						}
					}
					export_to_variable = {
						which = ConsumedDev
						value = development
					}
					ROOT = { change_variable = { which = ConsumedDev which = PREV } }
				}
				set_country_flag = skurkokli_randomize
				set_country_flag = skurkokli_randomize_lake_fed
				every_country = {
					limit = { has_country_modifier = lake_federation_member }
					add_truce_with = J47
				}
				5018 = { remove_province_modifier = hulkyard_level_1 }
				remove_country_modifier = skurkokli_ogre_invasion
			}
			country_event = { id = ogre.20 days = 3 }
			custom_tooltip = ogre_consume_lake_fed 
		}
	}
}

skurkokli_fed_war_b_five = {
	slot = 5
	generic = no
	ai = yes
	potential = {
			tag = J47
			has_country_flag = war_against_fed
			has_country_flag = fed_war_completed
	}
	has_country_shield = yes
	
	skurkokli_saltbreath_pirates = {
		icon = mission_sea_battles
		required_missions = { skurkokli_the_greytide_falters }
		position = 15
		
		provinces_to_highlight = {
			area = vrorenmarch_area
			NOT = { owned_by = ROOT }
		}
		
		trigger = {
			736 = {
				development = 10
				has_building = impressment_offices
			}
		}
		
		effect = {
			add_prestige = 10
			vrorenmarch_area = {
				add_base_manpower = 1
			}
			hidden_effect = {
				giants_grave_sea_region = {
					discover_country = ROOT
				}
			}
			add_country_modifier = { 
				name = skurkokli_piracy_level_2
				duration = 9125 #25 years
			}
		}
	}	
	
	skurkokli_coldharbor_hulkyard = {
		icon = secure_the_republic
		required_missions = { skurkokli_saltbreath_pirates }
		position = 16
		
		provinces_to_highlight = {
				province_id = 736
				NOT = { owned_by = ROOT }
		}
		
		trigger = {
			dip_power = 200
			736 = {
				owned_by = ROOT
				is_core = ROOT
				has_shipyard_building_trigger = yes
			}
		}
		
		effect = {
			add_dip_power = -200
			esfjall_area = { 				
				limit = {
					NOT = { is_core = ROOT }
					NOT = { owned_by = ROOT }
				}
				hidden_effect = { discover_country = ROOT }
				add_permanent_claim = ROOT 
			}
			naugsvol_area = { 				
				limit = {
					NOT = { is_core = ROOT }
					NOT = { owned_by = ROOT }
				}
				hidden_effect = { discover_country = ROOT }
				add_permanent_claim = ROOT 
			}
			nyrford_area = { 				
				limit = {
					NOT = { is_core = ROOT }
					NOT = { owned_by = ROOT }
				}
				hidden_effect = { discover_country = ROOT }
				add_permanent_claim = ROOT 
			}
			olavslund_area = { 				
				limit = {
					NOT = { is_core = ROOT }
					NOT = { owned_by = ROOT }
				}
				hidden_effect = { discover_country = ROOT }
				add_permanent_claim = ROOT 
			}
			elkaesals_slumber_area = { 				
				limit = {
					NOT = { is_core = ROOT }
					NOT = { owned_by = ROOT }
				}
				hidden_effect = { discover_country = ROOT }
				add_permanent_claim = ROOT 
			}
			736 = {
				change_province_name = "Kvevinavagof"
				rename_capital = "Kvevinavagof"
				add_province_modifier = {
					name = hulkyard_level_2
					duration = -1
				}
				add_base_tax = 1
				add_base_production = 1
				add_base_manpower = 1
				change_trade_goods = naval_supplies
			}
		}
	}
	
	skurkokli_ravage_the_reavers = {
		icon = mission_burning_man
		required_missions = { skurkokli_coldharbor_hulkyard }
		position = 17
		
		provinces_to_highlight = {
			OR = {
				area = esfjall_area
				area = naugsvol_area
				area = nyrford_area
				area = olavslund_area
				area = elkaesals_slumber_area
			}				
		}
		
		trigger = {			
			esfjall_area = {
				type = all
				owned_by = ROOT
			}
			naugsvol_area = {
				type = all
				owned_by = ROOT
			}
			nyrford_area = {
				type = all
				owned_by = ROOT
			}	
			olavslund_area = {
				type = all
				owned_by = ROOT
			}
			elkaesals_slumber_area = {
				type = all
				owned_by = ROOT
			}
		}	
		
		effect = {
			hidden_effect = {
				every_owned_province = {
					limit = {
						superregion = gerudia_superregion
						NOT = {
							region = alenic_reach_region
							area = northern_giants_tears_area
							area = southern_giants_tears_area
						}
					}
					export_to_variable = {
						which = ConsumedDev
						value = development
					}
					ROOT = { change_variable = { which = ConsumedDev which = PREV } }
				}
				set_country_flag = skurkokli_randomize
				set_country_flag = skurkokli_randomize_gerudia
			}

			country_event = { id = ogre.27 days = 3 }
			custom_tooltip = ogre_consume_northmen
		}
	}
}

skurkokli_horde_marches_five = {
	slot = 5
	generic = no
	ai = yes
	potential = {
			tag = J47
			has_country_flag = horde_marches_west
	}
	has_country_shield = yes

	skurkokli_ogretecture = {
		icon = mission_early_game_buildings
		required_missions = { skurkokli_a_new_home }
		position = 18
	
		trigger = {
			adm_power = 75
			dip_power = 75
			treasury = 100
			castonath_area = {
				type = all
				owned_by = ROOT
				is_core = ROOT
			}
			833 = {
				is_capital_of = ROOT
			}
		}
		
		effect = {
			add_adm_power = -75
			add_dip_power = -75
			add_treasury = -100
			add_country_modifier = {
				name = skurkokli_ogretecture
				duration = 9125 #25 years
			}
			833 = {
				change_trade_goods = iron
			}
		}
	}

	skurkokli_walls_of_skurkolba = {
		icon = mission_assert_control_over_delhi
		required_missions = { skurkokli_ogretecture }
		position = 19
		
		provinces_to_highlight = {
			province_id = 833
		}

		trigger = {
			mil_power = 100
			treasury = 100
			num_of_owned_provinces_with = {
				OR = {
						region = west_castanor_region
						region = inner_castanor_region
						region = south_castanor_region
				}
				is_core = ROOT
				is_city = yes
				value = 25
			}
			833 = {
				is_capital_of = ROOT
				has_fort_building_trigger = yes
			}
		}
		
		effect = {
			add_prestige = 10
			add_mil_power = -100
			add_treasury = -100
			castonath_area = {
				add_province_modifier = {
					name = skurkokli_castonath_kelaktar_1
					duration = -1
				}
			}
		}	
	}

	skurkokli_feast_halls = {
		icon = mission_feast
		required_missions = { skurkokli_walls_of_skurkolba }
		position = 20
		
		provinces_to_highlight = {
			OR = {
				province_id = 833
				province_id = 832
				province_id = 831
			}
		}

		trigger = {
			treasury = 150
			num_of_owned_provinces_with = {
				OR = {
						region = west_castanor_region
						region = inner_castanor_region
						region = south_castanor_region
				}
				is_core = ROOT
				is_city = yes
				value = 50
			}
			833 = {
				is_capital_of = ROOT
				development = 30
				has_tax_building_trigger = yes
			}
			832 = {
				has_tax_building_trigger = yes
				owned_by = ROOT
			}
			831 = {
				has_tax_building_trigger = yes
				owned_by = ROOT
			}
		}
		
		effect = {
			add_prestige = 15
			add_treasury = -150
			castonath_area = {
				add_province_modifier = {
					name = skurkokli_castonath_kelaktar_2
					duration = -1
				}
				hidden_effect = {
					remove_province_modifier = skurkokli_castonath_kelaktar_1
				}
			}
		}	
	}

	skurkokli_forges = {
		icon = mission_smith
		required_missions = { skurkokli_feast_halls }
		position = 21
		
		provinces_to_highlight = {
			province_id = 833
		}

		trigger = {
			treasury = 150
			num_of_owned_provinces_with = {
				OR = {
						region = west_castanor_region
						region = inner_castanor_region
						region = south_castanor_region
				}
				is_core = ROOT
				is_city = yes
				value = 75
			}
			833 = {
				is_capital_of = ROOT
				development = 40
				has_building = weapons
			}
		}
		
		effect = {
			add_prestige = 15
			add_treasury = -150
			castonath_area = {
				add_province_modifier = {
					name = skurkokli_castonath_kelaktar_3
					duration = -1
				}
				hidden_effect = {
					remove_province_modifier = skurkokli_castonath_kelaktar_2
				}
			}
		}	
	}

	skurkokli_heart_horde = {
		icon = mission_found_the_city_of_agra
		required_missions = { 
								skurkokli_this_land_is_our_land
								skurkokli_forges 
							}
		position = 22

		provinces_to_highlight = {
			OR = {
				province_id = 833
				province_id = 832
			}
		}

		trigger = {
			treasury = 200
			num_of_owned_provinces_with = {
				OR = {
						region = west_castanor_region
						region = inner_castanor_region
						region = south_castanor_region
				}
				is_core = ROOT
				is_city = yes
				value = 100
			}
			833 = {
				is_capital_of = ROOT
				development = 50
				has_courthouse_building_trigger = yes
			}
			833 = { #Castonath Trade Node
				trade_share = {
					country = ROOT
					share = 50
				}
			}
		}
		
		effect = {
			add_prestige = 25
			add_treasury = -200
			castonath_area = {
				add_province_modifier = {
					name = skurkokli_castonath_kelaktar_4
					duration = -1
				}
				hidden_effect = {
					remove_province_modifier = skurkokli_castonath_kelaktar_3
				}
			}
			832 = {
				add_center_of_trade_level = 1
			}
		}
	}
}


skurkokli_bottom_five = {
	slot = 5
	generic = no
	ai = yes
	potential = {
			tag = J47
			has_country_flag = the_ogretide
	}
	has_country_shield = yes
	
 	skurkokli_ironclaw_resettled = {
		icon = gory_to_the_black_army
		required_missions = { skurkokli_tribes_of_bloodtooth }
		position = 29
		
		provinces_to_highlight = {
			area = wexhills_area
			NOT = { owned_by = ROOT }
		}
		
		trigger = {
			dip_power = 100
			treasury = 200
			wexhills_area = {
				type = all
				owned_by = ROOT
				is_core = ROOT
			}
		}
		
		effect = {
			add_prestige = 10
			add_dip_power = -100
			add_treasury = -200
			wexhills_area = {
				change_culture = bloodtooth_ogre
				change_religion = ROOT
			}
			306 = {
				change_province_name = "Rk'narnktar"
				rename_capital = "Rk'narnktar"
				add_base_tax = 1
				add_base_production = 1
				add_base_manpower = 1

			}
		}
	}

	skurkokli_ironclaw_forges = {
		icon = fight_bosnian_heresies
		required_missions = { skurkokli_ironclaw_resettled }
		position = 30
		
		provinces_to_highlight = { province_id = 303 }
		
		trigger = {
			303 = {
					owned_by = ROOT
					development = 25
					has_building = furnace
					has_production_building_trigger = yes
			}
		}
		
		effect = {		
			small_decrease_of_orcish_tolerance_effect = yes
			303 = {
				add_province_modifier = {
					name = skurkokli_ironclaw
					duration = -1
				}
				add_orcish_minority_size_effect = yes
				add_base_manpower = 1
				add_base_production = 1
			}
		}		
	}
}
